EESchema Schematic File Version 4
EELAYER 30 0
EELAYER END
$Descr A 11000 8500
encoding utf-8
Sheet 1 1
Title ""
Date ""
Rev ""
Comp ""
Comment1 ""
Comment2 ""
Comment3 ""
Comment4 ""
$EndDescr
$Comp
L Connector_Generic:Conn_02x34_Top_Bottom J1
U 1 1 63349350
P 2350 3800
F 0 "J1" H 2400 5500 50  0000 C CNN
F 1 "Conn_02x34_Top_Bottom" H 2400 2000 50  0000 C CNN
F 2 "footprints:5796055-2" H 2350 3800 50  0001 C CNN
F 3 "~" H 2350 3800 50  0001 C CNN
F 4 "5796055-1-ND" H 2400 5650 50  0000 C CNN "CatNo"
	1    2350 3800
	1    0    0    -1  
$EndComp
Wire Wire Line
	2150 2200 1550 2200
Wire Wire Line
	2150 2400 1550 2400
Wire Wire Line
	2150 2600 1550 2600
Wire Wire Line
	2150 2800 1550 2800
Wire Wire Line
	2150 3000 1550 3000
Wire Wire Line
	2150 3200 1550 3200
Wire Wire Line
	2150 3400 1550 3400
Wire Wire Line
	2150 3600 1550 3600
Wire Wire Line
	2150 3800 1550 3800
Wire Wire Line
	2150 4000 1550 4000
Wire Wire Line
	2150 4200 1550 4200
Wire Wire Line
	2150 4400 1550 4400
Wire Wire Line
	2150 4600 1550 4600
Wire Wire Line
	2150 4800 1550 4800
Wire Wire Line
	2150 5000 1550 5000
Wire Wire Line
	2150 5200 1550 5200
Wire Wire Line
	3250 2200 2650 2200
Wire Wire Line
	3250 2400 2650 2400
Wire Wire Line
	3250 2600 2650 2600
Wire Wire Line
	3250 2800 2650 2800
Wire Wire Line
	3250 3000 2650 3000
Wire Wire Line
	3250 3200 2650 3200
Wire Wire Line
	3250 3400 2650 3400
Wire Wire Line
	3250 3600 2650 3600
Wire Wire Line
	3250 3800 2650 3800
Wire Wire Line
	3250 4000 2650 4000
Wire Wire Line
	3250 4200 2650 4200
Wire Wire Line
	3250 4400 2650 4400
Wire Wire Line
	3250 4600 2650 4600
Wire Wire Line
	3250 4800 2650 4800
Wire Wire Line
	3250 5000 2650 5000
Wire Wire Line
	3250 5200 2650 5200
Text Label 2750 5200 0    50   ~ 0
DIO0
Text Label 1550 5200 0    50   ~ 0
DIO1
Text Label 2750 5000 0    50   ~ 0
DIO2
Text Label 1550 5000 0    50   ~ 0
DIO3
Text Label 2750 4800 0    50   ~ 0
DIO4
Text Label 1550 4800 0    50   ~ 0
DIO5
Text Label 2750 4600 0    50   ~ 0
DIO6
Text Label 1550 4600 0    50   ~ 0
DIO7
Text Label 2750 4400 0    50   ~ 0
DIO8
Text Label 1550 4400 0    50   ~ 0
DIO9
Text Label 2750 4200 0    50   ~ 0
DIO10
Text Label 1550 4200 0    50   ~ 0
DIO11
Text Label 2750 4000 0    50   ~ 0
DIO12
Text Label 1550 4000 0    50   ~ 0
DIO13
Text Label 2750 3800 0    50   ~ 0
DIO14
Text Label 1550 3800 0    50   ~ 0
DIO15
Text Label 2750 3600 0    50   ~ 0
DIO16
Text Label 1550 3600 0    50   ~ 0
DIO17
Text Label 2750 3400 0    50   ~ 0
DIO18
Text Label 1550 3400 0    50   ~ 0
DIO19
Text Label 2750 3200 0    50   ~ 0
DIO20
Text Label 1550 3200 0    50   ~ 0
DIO21
Text Label 2750 3000 0    50   ~ 0
DIO22
Text Label 1550 3000 0    50   ~ 0
DIO23
Text Label 2750 2800 0    50   ~ 0
DIO24
Text Label 1550 2800 0    50   ~ 0
DIO25
Text Label 2750 2600 0    50   ~ 0
DIO26
Text Label 1550 2600 0    50   ~ 0
DIO27
Text Label 2750 2400 0    50   ~ 0
DIO28
Text Label 1550 2400 0    50   ~ 0
DIO29
Text Label 2750 2200 0    50   ~ 0
DIO30
Text Label 1550 2200 0    50   ~ 0
DIO31
Wire Wire Line
	2650 5400 3250 5400
Text Label 2750 5400 0    50   ~ 0
EXTCLKIN
Wire Wire Line
	2150 2300 2050 2300
Wire Wire Line
	2050 2300 2050 2500
Wire Wire Line
	2050 2500 2150 2500
Wire Wire Line
	2050 2500 2050 2700
Wire Wire Line
	2050 2700 2150 2700
Connection ~ 2050 2500
Wire Wire Line
	2050 2700 2050 2900
Wire Wire Line
	2050 2900 2150 2900
Connection ~ 2050 2700
Wire Wire Line
	2050 2900 2050 3100
Wire Wire Line
	2050 3100 2150 3100
Connection ~ 2050 2900
Wire Wire Line
	2050 3100 2050 3300
Wire Wire Line
	2050 3300 2150 3300
Connection ~ 2050 3100
Wire Wire Line
	2050 3300 2050 3500
Wire Wire Line
	2050 3500 2150 3500
Connection ~ 2050 3300
Wire Wire Line
	2050 3500 2050 3700
Wire Wire Line
	2050 3700 2150 3700
Connection ~ 2050 3500
Wire Wire Line
	2050 3700 2050 3900
Wire Wire Line
	2050 3900 2150 3900
Connection ~ 2050 3700
Wire Wire Line
	2050 3900 2050 4100
Wire Wire Line
	2050 4100 2150 4100
Connection ~ 2050 3900
Wire Wire Line
	2050 4100 2050 4300
Wire Wire Line
	2050 4300 2150 4300
Wire Wire Line
	2050 4300 2050 4500
Wire Wire Line
	2050 4500 2150 4500
Wire Wire Line
	2050 4500 2050 4700
Wire Wire Line
	2050 4700 2150 4700
Wire Wire Line
	2050 4700 2050 4900
Wire Wire Line
	2050 4900 2150 4900
Wire Wire Line
	2050 4900 2050 5100
Wire Wire Line
	2050 5100 2150 5100
Wire Wire Line
	2050 5100 2050 5300
Wire Wire Line
	2050 5300 2150 5300
Wire Wire Line
	2050 5300 2050 5400
Wire Wire Line
	2050 5400 2150 5400
Connection ~ 2050 5300
Wire Wire Line
	2050 5400 2050 5500
Wire Wire Line
	2050 5500 2150 5500
Connection ~ 2050 5400
Wire Wire Line
	2050 5500 2050 5700
Connection ~ 2050 5500
$Comp
L power:GND #PWR0101
U 1 1 6336C533
P 2050 5700
F 0 "#PWR0101" H 2050 5450 50  0001 C CNN
F 1 "GND" H 2050 5550 50  0000 C CNN
F 2 "" H 2050 5700 50  0001 C CNN
F 3 "" H 2050 5700 50  0001 C CNN
	1    2050 5700
	1    0    0    -1  
$EndComp
Wire Wire Line
	2650 2300 2700 2300
Wire Wire Line
	2700 2300 2700 2500
Wire Wire Line
	2700 2500 2650 2500
Wire Wire Line
	2700 2500 2700 2700
Wire Wire Line
	2700 2700 2650 2700
Connection ~ 2700 2500
Wire Wire Line
	2700 2700 2700 2900
Wire Wire Line
	2700 2900 2650 2900
Connection ~ 2700 2700
Wire Wire Line
	2700 3100 2650 3100
Wire Wire Line
	2700 2900 2700 3100
Connection ~ 2700 2900
Wire Wire Line
	2700 3100 2700 3300
Wire Wire Line
	2700 3300 2650 3300
Connection ~ 2700 3100
Wire Wire Line
	2700 3300 2700 3500
Wire Wire Line
	2700 3500 2650 3500
Connection ~ 2700 3300
Wire Wire Line
	2700 3500 2700 3700
Wire Wire Line
	2700 3700 2650 3700
Connection ~ 2700 3500
Wire Wire Line
	2700 3700 2700 3900
Wire Wire Line
	2700 3900 2650 3900
Connection ~ 2700 3700
Wire Wire Line
	2700 3900 2700 4100
Wire Wire Line
	2700 4100 2650 4100
Connection ~ 2700 3900
Wire Wire Line
	2700 4100 2700 4300
Wire Wire Line
	2700 4300 2650 4300
Connection ~ 2700 4100
Wire Wire Line
	2700 4500 2650 4500
Connection ~ 2700 4300
Wire Wire Line
	2700 4700 2650 4700
Wire Wire Line
	2700 4300 2700 4500
Connection ~ 2700 4500
Wire Wire Line
	2700 4900 2650 4900
Wire Wire Line
	2700 4500 2700 4700
Connection ~ 2700 4700
Wire Wire Line
	2700 4700 2700 4900
Wire Wire Line
	2700 4900 2700 5100
Wire Wire Line
	2700 5100 2650 5100
Connection ~ 2700 4900
Wire Wire Line
	2700 5100 2700 5300
Wire Wire Line
	2700 5300 2650 5300
Connection ~ 2700 5100
Wire Wire Line
	2700 5300 2700 5500
Wire Wire Line
	2700 5500 2650 5500
Connection ~ 2700 5300
Wire Wire Line
	2700 5500 2700 5700
Connection ~ 2700 5500
$Comp
L power:GND #PWR0102
U 1 1 63392A0B
P 2700 5700
F 0 "#PWR0102" H 2700 5450 50  0001 C CNN
F 1 "GND" H 2700 5550 50  0000 C CNN
F 2 "" H 2700 5700 50  0001 C CNN
F 3 "" H 2700 5700 50  0001 C CNN
	1    2700 5700
	1    0    0    -1  
$EndComp
$Comp
L Connector_Generic:Conn_02x20_Odd_Even J2
U 1 1 633934A7
P 4800 3700
F 0 "J2" H 4850 4700 50  0000 C CNN
F 1 "Conn_02x20_Odd_Even" H 4850 2600 50  0000 C CNN
F 2 "Connector_PinHeader_2.54mm:PinHeader_2x20_P2.54mm_Vertical" H 4800 3700 50  0001 C CNN
F 3 "~" H 4800 3700 50  0001 C CNN
F 4 "S9175-ND" H 4850 4850 50  0000 C CNN "CatNo"
	1    4800 3700
	1    0    0    -1  
$EndComp
Wire Wire Line
	4600 2800 4600 2900
Connection ~ 4600 2900
Wire Wire Line
	4600 2900 4600 3000
Connection ~ 4600 3000
Wire Wire Line
	4600 3000 4600 3100
Connection ~ 4600 3100
Wire Wire Line
	4600 3100 4600 3200
Connection ~ 4600 3200
Wire Wire Line
	4600 3200 4600 3300
Connection ~ 4600 3300
Wire Wire Line
	4600 3300 4600 3400
Connection ~ 4600 3400
Wire Wire Line
	4600 3400 4600 3500
Connection ~ 4600 3500
Wire Wire Line
	4600 3500 4600 3600
Connection ~ 4600 3600
Wire Wire Line
	4600 3600 4600 3700
Connection ~ 4600 3700
Wire Wire Line
	4600 3700 4600 3800
Connection ~ 4600 3800
Wire Wire Line
	4600 3800 4600 3900
Connection ~ 4600 3900
Wire Wire Line
	4600 3900 4600 4000
Connection ~ 4600 4000
Wire Wire Line
	4600 4000 4600 4100
Connection ~ 4600 4100
Wire Wire Line
	4600 4100 4600 4200
Connection ~ 4600 4200
Wire Wire Line
	4600 4200 4600 4300
Connection ~ 4600 4300
Wire Wire Line
	4600 4300 4600 4400
Connection ~ 4600 4400
Wire Wire Line
	4600 4400 4600 4500
Connection ~ 4600 4500
Wire Wire Line
	4600 4500 4600 4600
Connection ~ 4600 4600
Wire Wire Line
	4600 4600 4600 4700
Connection ~ 4600 4700
Wire Wire Line
	4600 4700 4600 4900
$Comp
L power:GND #PWR0103
U 1 1 63397640
P 4600 4900
F 0 "#PWR0103" H 4600 4650 50  0001 C CNN
F 1 "GND" H 4600 4750 50  0000 C CNN
F 2 "" H 4600 4900 50  0001 C CNN
F 3 "" H 4600 4900 50  0001 C CNN
	1    4600 4900
	1    0    0    -1  
$EndComp
Wire Wire Line
	5100 2800 5550 2800
Wire Wire Line
	5100 2900 5550 2900
Wire Wire Line
	5100 3000 5550 3000
Wire Wire Line
	5100 3100 5550 3100
Wire Wire Line
	5100 3200 5550 3200
Wire Wire Line
	5100 3300 5550 3300
Wire Wire Line
	5100 3400 5550 3400
Wire Wire Line
	5100 3500 5550 3500
Wire Wire Line
	5100 3600 5550 3600
Wire Wire Line
	5100 3700 5550 3700
Wire Wire Line
	5100 3800 5550 3800
Wire Wire Line
	5100 3900 5550 3900
Wire Wire Line
	5100 4000 5550 4000
Wire Wire Line
	5100 4100 5550 4100
Wire Wire Line
	5100 4200 5550 4200
Wire Wire Line
	5100 4300 5550 4300
Wire Wire Line
	5100 4400 5550 4400
Wire Wire Line
	5100 4500 5550 4500
Wire Wire Line
	5100 4600 5550 4600
Wire Wire Line
	5100 4700 5550 4700
Text Label 5150 2800 0    50   ~ 0
DIO7
Text Notes 5650 2800 0    50   ~ 0
D7
Text Label 5150 2900 0    50   ~ 0
DIO8
Text Label 5150 3000 0    50   ~ 0
DIO9
Text Label 5150 3100 0    50   ~ 0
DIO10
Text Label 5150 3200 0    50   ~ 0
DIO11
Text Label 5150 3300 0    50   ~ 0
DIO12
Text Label 5150 3400 0    50   ~ 0
DIO13
Text Label 5150 3500 0    50   ~ 0
DIO14
Text Notes 5650 2900 0    50   ~ 0
D6
Text Notes 5650 3000 0    50   ~ 0
D5
Text Notes 5650 3100 0    50   ~ 0
D4
Text Notes 5650 3200 0    50   ~ 0
D3
Text Notes 5650 3300 0    50   ~ 0
D2
Text Notes 5650 3400 0    50   ~ 0
D1
Text Notes 5650 3500 0    50   ~ 0
D0
Text Label 5150 3600 0    50   ~ 0
DIO1
Text Label 5150 3700 0    50   ~ 0
DIO2
Text Label 5150 3800 0    50   ~ 0
DIO3
Text Label 5150 3900 0    50   ~ 0
DIO4
Text Label 5150 4000 0    50   ~ 0
DIO5
Text Label 5150 4100 0    50   ~ 0
DIO6
Text Label 5150 4200 0    50   ~ 0
DIO20
Text Notes 5650 4200 0    50   ~ 0
I/O UD
Text Notes 5650 3600 0    50   ~ 0
A5
Text Notes 5650 3700 0    50   ~ 0
A4
Text Notes 5650 3800 0    50   ~ 0
A3
Text Notes 5650 3900 0    50   ~ 0
A2
Text Notes 5650 4000 0    50   ~ 0
A1
Text Notes 5650 4100 0    50   ~ 0
A0
Text Label 5150 4300 0    50   ~ 0
DIO25
Text Notes 5650 4300 0    50   ~ 0
~WR
Text Label 5150 4400 0    50   ~ 0
DIO24
Text Notes 5650 4400 0    50   ~ 0
~RD
Text Label 5150 4500 0    50   ~ 0
DIO26
Text Notes 5650 4500 0    50   ~ 0
PMODE
Text Label 5150 4600 0    50   ~ 0
DIO18
Text Notes 5650 4600 0    50   ~ 0
OSK
Text Label 5150 4700 0    50   ~ 0
DIO19
Text Notes 5650 4700 0    50   ~ 0
RESET
$Comp
L Connector:Conn_Coaxial J3
U 1 1 633DC13A
P 7000 2000
F 0 "J3" H 7010 2120 50  0000 C CNN
F 1 "SMA" V 7115 2000 50  0000 C CNN
F 2 "Connector_Coaxial:SMA_Amphenol_132291-12_Vertical" H 7000 2000 50  0001 C CNN
F 3 " ~" H 7000 2000 50  0001 C CNN
F 4 "ACX1230-ND" H 7000 2250 50  0000 C CNN "CatNo"
	1    7000 2000
	1    0    0    -1  
$EndComp
Wire Wire Line
	6800 2000 6500 2000
Text Label 6500 2000 0    50   ~ 0
DIO15
$Comp
L power:GND #PWR0104
U 1 1 633EA165
P 7000 2200
F 0 "#PWR0104" H 7000 1950 50  0001 C CNN
F 1 "GND" H 7000 2050 50  0000 C CNN
F 2 "" H 7000 2200 50  0001 C CNN
F 3 "" H 7000 2200 50  0001 C CNN
	1    7000 2200
	1    0    0    -1  
$EndComp
$Comp
L Connector:Conn_Coaxial J5
U 1 1 633EA639
P 7750 2000
F 0 "J5" H 7760 2120 50  0000 C CNN
F 1 "SMA" V 7865 2000 50  0000 C CNN
F 2 "Connector_Coaxial:SMA_Amphenol_132291-12_Vertical" H 7750 2000 50  0001 C CNN
F 3 " ~" H 7750 2000 50  0001 C CNN
F 4 "ACX1230-ND" H 7750 2000 50  0001 C CNN "CatNo"
	1    7750 2000
	1    0    0    -1  
$EndComp
Wire Wire Line
	7550 2000 7250 2000
Text Label 7250 2000 0    50   ~ 0
DIO16
$Comp
L power:GND #PWR0105
U 1 1 633EA641
P 7750 2200
F 0 "#PWR0105" H 7750 1950 50  0001 C CNN
F 1 "GND" H 7750 2050 50  0000 C CNN
F 2 "" H 7750 2200 50  0001 C CNN
F 3 "" H 7750 2200 50  0001 C CNN
	1    7750 2200
	1    0    0    -1  
$EndComp
$Comp
L Connector:Conn_Coaxial J7
U 1 1 633EF006
P 8500 2000
F 0 "J7" H 8510 2120 50  0000 C CNN
F 1 "SMA" V 8615 2000 50  0000 C CNN
F 2 "Connector_Coaxial:SMA_Amphenol_132291-12_Vertical" H 8500 2000 50  0001 C CNN
F 3 " ~" H 8500 2000 50  0001 C CNN
F 4 "ACX1230-ND" H 8500 2000 50  0001 C CNN "CatNo"
	1    8500 2000
	1    0    0    -1  
$EndComp
Wire Wire Line
	8300 2000 8000 2000
Text Label 8000 2000 0    50   ~ 0
DIO17
$Comp
L power:GND #PWR0106
U 1 1 633EF00E
P 8500 2200
F 0 "#PWR0106" H 8500 1950 50  0001 C CNN
F 1 "GND" H 8500 2050 50  0000 C CNN
F 2 "" H 8500 2200 50  0001 C CNN
F 3 "" H 8500 2200 50  0001 C CNN
	1    8500 2200
	1    0    0    -1  
$EndComp
$Comp
L Connector:Conn_Coaxial J9
U 1 1 633F3A89
P 9200 2000
F 0 "J9" H 9210 2120 50  0000 C CNN
F 1 "SMA" V 9315 2000 50  0000 C CNN
F 2 "Connector_Coaxial:SMA_Amphenol_132291-12_Vertical" H 9200 2000 50  0001 C CNN
F 3 " ~" H 9200 2000 50  0001 C CNN
F 4 "ACX1230-ND" H 9200 2000 50  0001 C CNN "CatNo"
	1    9200 2000
	1    0    0    -1  
$EndComp
Wire Wire Line
	9000 2000 8700 2000
Text Label 8700 2000 0    50   ~ 0
DIO21
$Comp
L power:GND #PWR0107
U 1 1 633F3A91
P 9200 2200
F 0 "#PWR0107" H 9200 1950 50  0001 C CNN
F 1 "GND" H 9200 2050 50  0000 C CNN
F 2 "" H 9200 2200 50  0001 C CNN
F 3 "" H 9200 2200 50  0001 C CNN
	1    9200 2200
	1    0    0    -1  
$EndComp
$Comp
L Connector:Conn_Coaxial J11
U 1 1 633F8731
P 9950 2000
F 0 "J11" H 9960 2120 50  0000 C CNN
F 1 "SMA" V 10065 2000 50  0000 C CNN
F 2 "Connector_Coaxial:SMA_Amphenol_132291-12_Vertical" H 9950 2000 50  0001 C CNN
F 3 " ~" H 9950 2000 50  0001 C CNN
F 4 "ACX1230-ND" H 9950 2000 50  0001 C CNN "CatNo"
	1    9950 2000
	1    0    0    -1  
$EndComp
Wire Wire Line
	9750 2000 9450 2000
Text Label 9450 2000 0    50   ~ 0
DIO23
$Comp
L power:GND #PWR0108
U 1 1 633F8739
P 9950 2200
F 0 "#PWR0108" H 9950 1950 50  0001 C CNN
F 1 "GND" H 9950 2050 50  0000 C CNN
F 2 "" H 9950 2200 50  0001 C CNN
F 3 "" H 9950 2200 50  0001 C CNN
	1    9950 2200
	1    0    0    -1  
$EndComp
$Comp
L Connector:Conn_Coaxial J4
U 1 1 633FE825
P 7000 2850
F 0 "J4" H 7010 2970 50  0000 C CNN
F 1 "SMA" V 7115 2850 50  0000 C CNN
F 2 "Connector_Coaxial:SMA_Amphenol_132291-12_Vertical" H 7000 2850 50  0001 C CNN
F 3 " ~" H 7000 2850 50  0001 C CNN
F 4 "ACX1230-ND" H 7000 2850 50  0001 C CNN "CatNo"
	1    7000 2850
	1    0    0    -1  
$EndComp
Wire Wire Line
	6800 2850 6500 2850
Text Label 6500 2850 0    50   ~ 0
DIO27
$Comp
L power:GND #PWR0109
U 1 1 633FE82D
P 7000 3050
F 0 "#PWR0109" H 7000 2800 50  0001 C CNN
F 1 "GND" H 7000 2900 50  0000 C CNN
F 2 "" H 7000 3050 50  0001 C CNN
F 3 "" H 7000 3050 50  0001 C CNN
	1    7000 3050
	1    0    0    -1  
$EndComp
$Comp
L Connector:Conn_Coaxial J6
U 1 1 633FE833
P 7750 2850
F 0 "J6" H 7760 2970 50  0000 C CNN
F 1 "SMA" V 7865 2850 50  0000 C CNN
F 2 "Connector_Coaxial:SMA_Amphenol_132291-12_Vertical" H 7750 2850 50  0001 C CNN
F 3 " ~" H 7750 2850 50  0001 C CNN
F 4 "ACX1230-ND" H 7750 2850 50  0001 C CNN "CatNo"
	1    7750 2850
	1    0    0    -1  
$EndComp
Wire Wire Line
	7550 2850 7250 2850
Text Label 7250 2850 0    50   ~ 0
DIO28
$Comp
L power:GND #PWR0110
U 1 1 633FE83B
P 7750 3050
F 0 "#PWR0110" H 7750 2800 50  0001 C CNN
F 1 "GND" H 7750 2900 50  0000 C CNN
F 2 "" H 7750 3050 50  0001 C CNN
F 3 "" H 7750 3050 50  0001 C CNN
	1    7750 3050
	1    0    0    -1  
$EndComp
$Comp
L Connector:Conn_Coaxial J8
U 1 1 633FE841
P 8500 2850
F 0 "J8" H 8510 2970 50  0000 C CNN
F 1 "SMA" V 8615 2850 50  0000 C CNN
F 2 "Connector_Coaxial:SMA_Amphenol_132291-12_Vertical" H 8500 2850 50  0001 C CNN
F 3 " ~" H 8500 2850 50  0001 C CNN
F 4 "ACX1230-ND" H 8500 2850 50  0001 C CNN "CatNo"
	1    8500 2850
	1    0    0    -1  
$EndComp
Wire Wire Line
	8300 2850 8000 2850
Text Label 8000 2850 0    50   ~ 0
DIO29
$Comp
L power:GND #PWR0111
U 1 1 633FE849
P 8500 3050
F 0 "#PWR0111" H 8500 2800 50  0001 C CNN
F 1 "GND" H 8500 2900 50  0000 C CNN
F 2 "" H 8500 3050 50  0001 C CNN
F 3 "" H 8500 3050 50  0001 C CNN
	1    8500 3050
	1    0    0    -1  
$EndComp
$Comp
L Connector:Conn_Coaxial J10
U 1 1 633FE84F
P 9200 2850
F 0 "J10" H 9210 2970 50  0000 C CNN
F 1 "SMA" V 9315 2850 50  0000 C CNN
F 2 "Connector_Coaxial:SMA_Amphenol_132291-12_Vertical" H 9200 2850 50  0001 C CNN
F 3 " ~" H 9200 2850 50  0001 C CNN
F 4 "ACX1230-ND" H 9200 2850 50  0001 C CNN "CatNo"
	1    9200 2850
	1    0    0    -1  
$EndComp
Wire Wire Line
	9000 2850 8700 2850
Text Label 8700 2850 0    50   ~ 0
DIO30
$Comp
L power:GND #PWR0112
U 1 1 633FE857
P 9200 3050
F 0 "#PWR0112" H 9200 2800 50  0001 C CNN
F 1 "GND" H 9200 2900 50  0000 C CNN
F 2 "" H 9200 3050 50  0001 C CNN
F 3 "" H 9200 3050 50  0001 C CNN
	1    9200 3050
	1    0    0    -1  
$EndComp
$Comp
L Connector:Conn_Coaxial J12
U 1 1 633FE85D
P 9950 2850
F 0 "J12" H 9960 2970 50  0000 C CNN
F 1 "SMA" V 10065 2850 50  0000 C CNN
F 2 "Connector_Coaxial:SMA_Amphenol_132291-12_Vertical" H 9950 2850 50  0001 C CNN
F 3 " ~" H 9950 2850 50  0001 C CNN
F 4 "ACX1230-ND" H 9950 2850 50  0001 C CNN "CatNo"
	1    9950 2850
	1    0    0    -1  
$EndComp
Wire Wire Line
	9750 2850 9450 2850
Text Label 9450 2850 0    50   ~ 0
DIO31
$Comp
L power:GND #PWR0113
U 1 1 633FE865
P 9950 3050
F 0 "#PWR0113" H 9950 2800 50  0001 C CNN
F 1 "GND" H 9950 2900 50  0000 C CNN
F 2 "" H 9950 3050 50  0001 C CNN
F 3 "" H 9950 3050 50  0001 C CNN
	1    9950 3050
	1    0    0    -1  
$EndComp
Text Notes 6450 7300 0    100  ~ 0
Boston University EDF\n\nE. Hazen
$Bitmap
Pos 9900 7100
Scale 2.000000
Data
89 50 4E 47 0D 0A 1A 0A 00 00 00 0D 49 48 44 52 00 00 00 A4 00 00 00 4E 08 02 00 00 00 21 08 2A 
F2 00 00 00 03 73 42 49 54 08 08 08 DB E1 4F E0 00 00 1F D0 49 44 41 54 78 9C ED 5D 77 78 94 55 
BA FF 7D 65 5A 66 32 C9 A4 77 48 11 04 04 31 A2 AC 8A AB 44 94 E2 B2 82 48 11 0B 89 E8 CA EA 0A 
16 56 B1 81 20 A2 8F 21 20 45 60 ED B8 8A 08 78 8D 7A 51 14 41 F0 AA 04 84 28 0A 31 C0 64 D2 DB 
24 99 C9 F4 F6 7D DF B9 7F 9C CC 38 C9 24 21 09 D1 BD 5E F2 7B E6 C9 33 DF 37 A7 BC E7 BC A7 BC 
E7 2D 27 0C 21 04 03 38 3F C0 FE A7 09 18 C0 EF 87 01 66 9F 47 18 60 F6 79 04 3E F0 AD F6 B1 C7 
1A D7 AF 67 FE 83 B4 0C A0 BF 41 80 F0 71 E3 2E D8 BB 97 3E FE CA 6C 22 08 92 DB 0D 40 FC CF 10 
36 80 7E 06 07 00 A0 3C A5 F8 95 D9 60 18 02 C8 A3 A2 A2 A7 4C 91 25 24 30 32 19 06 04 F5 3F 22 
18 06 A2 28 DA ED 96 CF 3E 73 97 97 83 F9 75 B1 E6 83 93 11 40 3E 78 F0 A0 2D 5B 24 97 4B 68 6C 
04 C7 FD EE 94 0E E0 9C 21 8A 5C 44 84 2C 25 C5 70 EB AD CE F2 F2 E0 5F F8 0E 29 89 CF 27 B9 5C 
55 F7 DF 6F F9 EA 2B 8E 1D 10 DF FE 78 20 84 A8 86 0F 1F FC F6 DB 10 84 0E 3F 75 64 36 00 86 65 
7D 0D 0D BE A6 A6 81 CD FB 8F 08 09 E0 23 22 20 8A C1 0B 38 45 27 CC 06 C0 C8 64 0C 30 20 99 FF 
11 C1 00 8C 5C 4E 42 38 8D 81 73 F6 79 85 01 66 9F 47 18 60 F6 79 84 01 66 9F 47 18 60 F6 79 84 
CE A5 F1 EE 21 B5 7F EC A0 66 63 FC 7F 7B 25 CC 4B 41 E5 B0 FE 2A 98 1E 97 43 FC 59 D8 A0 2F C1 
F4 04 A7 EC A1 5E 90 01 C8 D9 08 20 41 05 D2 94 01 CA BB 99 46 1D 68 38 6B 1B 3B A5 B9 0F C7 A5 
DE 31 9B 00 9C 5A AD 1E 31 82 51 2A 89 DB 4D 04 01 00 17 11 21 4B 4C 04 CB 42 92 88 20 F8 1A 1A 
44 B3 D9 57 5F EF 6D 6E 46 0F 96 0E 11 60 00 55 46 86 E2 82 0B F8 E8 68 56 AD 96 A7 A4 B8 4E 9E 
14 2D 16 6F 45 85 47 AF 17 44 91 ED B6 61 12 C0 69 34 DA 31 63 64 69 69 CA C1 83 3D D5 D5 42 63 
A3 F3 C7 1F 25 BB 1D 1C 27 5A 2C 90 24 9A 4C 37 65 0A 1F 1F 6F DB B7 8F 08 02 D3 D9 E1 A4 5D 63 
09 61 64 32 ED 0D 37 38 8F 1D 73 14 17 87 0E 1A 09 E0 00 D5 85 17 2A 47 8C 60 15 0A 79 4A 0A 00 
B7 C1 20 36 37 7B CE 9C 71 D7 D6 76 DA 7C 02 C8 62 62 F8 E8 68 C9 E5 82 28 82 E3 44 9B 4D 30 9B 
BB A1 46 16 17 C7 47 45 49 2E 57 9B 9E 84 E3 58 95 4A 72 38 7C F5 F5 44 EC 85 36 A4 D7 CC 96 0F 
1E 9C B0 64 89 2C 39 59 35 7C B8 E4 F5 42 14 19 85 C2 5B 5E 2E 5A 2C E0 38 E2 F1 80 61 94 23 46 
B8 4F 9E B4 ED DF 6F DA B6 CD 69 30 74 A5 74 A5 03 36 E2 CA 2B A3 E6 CE 0D 1F 3F 9E 08 82 68 B7 
43 14 01 44 E7 E5 C9 53 53 7D F5 F5 D6 3D 7B AC 5F 7C 61 DA B9 53 12 C5 4E C7 8D 04 44 4E 98 10 
FB C0 03 91 7F FD AB BB A4 C4 7D FA 74 F8 84 09 CA A1 43 7D F5 F5 9E F2 72 B7 5E DF F0 EC B3 A2 
D5 0A 40 04 22 A6 4E 8D 5D B0 C0 63 30 30 84 04 EB 1C 7C 46 23 91 24 56 2E E7 74 BA C0 20 20 92 
04 96 55 64 64 D4 3E FE B8 A3 B8 B8 43 A5 1C CF 47 CF 9A 15 31 65 8A 6A D4 28 22 49 92 DD 4E 04 
81 E1 F9 C4 D1 A3 59 B5 DA F9 C3 0F B6 7D FB CC 3B 77 DA 8E 1C E9 30 05 09 A0 B9 EA AA E8 79 F3 
E4 83 06 11 8F 07 1C 27 18 8D 75 CB 96 D9 8A 8B BB EA A8 F0 71 E3 22 A7 4F 97 A5 A4 B0 61 61 10 
45 22 49 DE CA 4A C7 E1 C3 4D 6F BC 41 EC F6 9E CF EF DE 31 9B 05 7C D5 D5 75 4F 3F CD C8 64 E1 
13 26 A4 E4 E7 03 70 97 94 18 E6 CC 71 9F 39 C3 70 1C C3 B2 F2 CC CC C8 A9 53 93 9F 7B 2E 7C FC 
F8 C8 E9 D3 AB EE BF DF 56 54 D4 E9 00 67 15 8A E4 95 2B 63 F2 F2 08 50 FF CC 33 D6 03 07 3C 7A 
3D 04 81 E1 79 3E 3E 3E EC 92 4B 62 EF BD 37 3A 2F 2F 3A 2F 2F F2 96 5B EA 9E 79 C6 71 E2 04 17 
52 88 F6 CF 7F 4E DF BE 9D 8F 8E AE 7D E2 89 E6 D7 5F F7 1A 8D 1C CF 87 8D 19 13 FF E0 83 BA D9 
B3 BD 15 15 C6 97 5E 12 AC 56 00 1C C0 C8 E5 00 2C BB 77 7B CA CA 82 CB 49 29 28 60 38 CE D7 D0 
60 5C BB 56 F2 78 02 EF C3 2E BD 54 91 9E CE 28 14 C1 1D 2A 02 E1 D9 D9 49 CB 97 47 FC E5 2F F6 
EF BE AB 5B B1 C2 F1 DD 77 42 73 33 24 89 91 C9 14 43 87 6A 73 72 E2 17 2F 8E 5F BC 58 37 6B 56 
CB 5B 6F 35 BC F0 82 E0 72 05 6F 2B 8E EF BF 17 CC E6 B0 D1 A3 53 D7 AD 6B 63 43 42 42 D9 D4 A9 
9E 86 86 4E 07 B4 FD F0 61 6F 4D 8D 3C 2D 6D D0 9B 6F 72 1A 4D C3 0B 2F B4 7E F4 91 D0 D4 04 B7 
BB 57 2B 39 13 F0 41 AB 59 BC B8 AE A0 40 33 72 E4 D0 03 07 CA 66 CD B2 EC DB D7 69 C5 81 FD 83 
65 98 6C B7 9B 91 CB 5D C7 8F EB 6F BA C9 55 59 49 D3 D3 4D 2B 71 D1 A2 E4 E7 9F 67 55 2A FB 81 
03 A7 27 4F 96 DA 93 25 01 AA CC CC B4 CD 9B B5 D7 5F EF 28 2A 32 CC 9D EB 2A 2F 0F 9E 01 B4 16 
B9 56 1B 9D 9B 9B B2 66 0D C3 71 9E B2 B2 F2 DB 6F 0F 1D 37 43 0F 1E D4 FC F9 CF AD 85 85 A7 A7 
4F A7 3B 25 5D 60 59 85 62 F0 C6 8D 51 B7 DD 56 32 6A 94 5B AF 07 C0 F2 FC 90 BD 7B DD A7 4F 57 
DC 7B 6F F0 DA 47 80 4B 6B 6B 65 49 49 B6 AF BF 3E 75 CD 35 42 10 19 1C CF 67 ED DC 09 42 CA 6F 
BB 4D 74 B9 18 40 04 22 27 4C 18 B4 65 8B 22 33 D3 F4 CE 3B 55 0B 17 7A CC E6 E0 5D 46 F2 EF 4A 
29 AB 57 47 4E 9F 0E C0 BA 67 4F E5 7D F7 B9 CB CB D9 A0 1A 69 1F 5E 6A B3 B1 1A 0D 7D 69 FB EA 
2B C3 9C 39 3E A3 31 94 7F 34 BD 08 5C F8 E1 87 9A 3F FF B9 F4 B2 CB 1C 06 03 D7 C5 D6 26 01 EA 
11 23 32 77 EF AE FD E7 3F 9B 76 EE 8C BC FA EA A1 5F 7F 4D 7F EA B5 34 4E 3B 94 05 58 85 C2 FF 
8A 09 A8 57 19 80 03 58 A0 F9 D5 57 7D F5 F5 00 94 23 47 AA C7 8C 09 96 2F 08 C0 29 14 C9 CF 3D 
A7 BD FE 7A 6F 6D AD 61 CE 1C 77 79 39 CD 15 28 84 05 38 40 B0 5A 1B D7 AF AF 5E B8 10 84 28 32 
33 33 76 EC 50 65 65 49 41 E5 C8 D3 D3 95 C3 86 01 70 EB F5 C4 DF 18 4A 03 F1 78 6A 1F 7B CC 73 
E6 0C 1F 13 43 6B E7 B4 5A 70 5C EB 47 1F 49 00 DF FE 03 96 05 C0 F0 3C AF D5 06 BF 17 05 C1 BA 
77 2F 91 24 46 A9 A4 FD 18 9E 9D 3D 68 F3 66 45 66 66 EB 87 1F 56 DC 7D B7 60 36 F3 ED 29 A7 0D 
71 19 0C 15 B9 B9 96 C2 42 00 DA 49 93 92 57 AE E4 D5 EA 40 27 B4 35 90 E3 C0 71 A2 D9 4C 97 99 
F0 F1 E3 33 B6 6F 97 F9 A9 0D ED 73 0E 90 5C 2E 10 C2 C8 64 5D 71 BA 7B 9C C3 D1 AB 6B 01 87 01 
BC 4E 27 71 B9 DA 08 55 AB 83 7F 25 2C 1B FF F0 C3 BA D9 B3 01 D4 2F 5F EE F6 2F 09 9D 96 03 A0 
E5 CD 37 4D EF BD 07 40 9E 9A 9A BC 6A 15 27 97 B7 4B 44 08 00 6D 4E 8E 4C A1 08 3E 26 B0 80 CF 
64 32 CC 9E ED 2E 29 A1 D3 9D 8F 8E 76 FF F2 8B B7 B2 B2 E7 DD C4 02 AE 1F 7F 14 9A 9A 18 99 8C 
00 BC 52 99 F0 C4 13 8A AC 2C D1 6A AD 7D EA 29 C9 E3 E9 AA 28 16 10 AC D6 9A 25 4B E8 88 8F 9A 
3B 37 26 37 37 A4 79 0C AB 52 D9 0F 1D AA C8 CD 15 2D 16 00 E1 E3 C7 A7 6F DF CE EB 74 52 48 81 
6D 39 A8 1D F2 6C A2 65 37 CD E9 7F D0 B9 CB 28 14 00 08 21 BE BA BA C0 4F 22 A0 4A 4F 8F B9 FB 
6E 00 DE AA 2A D3 BB EF 76 4F 38 03 08 2E 57 CB EB AF 4B 76 3B 00 DD CC 99 E1 E3 C6 05 C6 BE A7 
AE 4E 30 9B 01 84 8D 1E 9D BC 72 25 A3 50 88 ED F3 BA 4A 4B A9 74 C6 02 EE 33 67 CA EF BD D7 79 
F2 64 CF DB CC 02 B6 EF BE AB F8 FB DF 05 A3 11 80 F6 FA EB 75 33 66 00 30 EF D8 E1 39 7D FA AC 
94 3B 4F 9D 6A 78 F1 45 FA 18 FF F8 E3 B2 A8 A8 4E AA 50 A9 CC DF 7C 53 91 9B 2B B6 B6 02 D0 5E 
77 5D E6 8E 1D 7C 6C 6C 57 FC 3E 17 F4 03 B3 89 24 49 4E A7 08 48 80 04 88 80 08 24 DC 7F BF 3C 
2D 0D 80 79 D7 2E C7 CF 3F 07 8B 27 EA B1 63 15 19 19 F4 A7 6E 26 47 30 EC 45 45 B6 AF BE A2 DF 
A3 EE B8 23 50 14 F1 78 9A 36 6E 04 00 96 8D 5F BC 38 7D CB 16 D5 A0 41 1D F8 1D 8C EE 8F 70 9D 
22 70 62 E6 14 8A 88 69 D3 E8 4B F3 7B EF 89 21 D6 E2 50 10 C0 BE 7F BF 68 36 03 90 27 27 AB AF 
BA AA D3 23 3E 03 B4 14 16 56 E4 E5 B5 CD EF 09 13 06 AD 5D CB B4 5F A8 FA 05 FD C0 6C 3E 32 32 
E2 C6 1B A3 27 4D D2 4D 9D AA 9B 32 25 7A DA B4 C1 F9 F9 89 4F 3F 2D B9 5C 8D AB 57 D7 3D F9 64 
B0 D8 C5 29 14 DA 09 13 E8 A3 F3 D8 B1 9E 1C 13 59 C0 E7 74 3A 8F 1E A5 8F E1 D7 5E 1B FC 53 D3 
2B AF 98 DE 7D 97 3E 46 E7 E6 66 16 16 C6 CD 9B 17 AC A2 E9 17 10 80 8F 89 89 98 32 05 80 D8 DA 
EA AD AE EE 49 2E 16 70 97 95 D9 0E 1E A4 8F DA 9C 9C AE 52 72 94 DF B9 B9 74 64 44 CD 9D 3B 28 
3F 9F E3 F9 FE 6D 45 5F 34 68 1D 8B 88 8D 8D B9 EB 2E C9 6E A7 62 8E 7C D0 20 45 66 26 00 6F 75 
B5 75 DF 3E 8F C9 14 7C 5E E2 22 22 54 17 5F 4C BF 7B 0C 06 D2 63 05 99 5B AF A7 07 D9 80 F8 4A 
21 79 BD 55 F7 DD E7 29 2B 4B 5C BA 14 40 D8 E8 D1 69 9B 37 47 4C 9D 5A F3 F0 C3 9E AA AA 7E 34 
C9 73 61 61 B2 84 04 00 92 DD 4E A4 1E CD 3A 06 10 1C 0E 8F C1 40 1F 69 B7 74 59 3E 60 2A 2C 94 
25 25 A5 BD FC 32 18 26 F6 81 07 08 21 35 0F 3D D4 C3 BA 7A 82 7E 98 D9 DE CA CA EA 87 1E 32 DC 
76 9B E1 D6 5B 0D B7 DE 7A EA 9A 6B 2A 72 73 BD 95 95 F2 D4 D4 8C F7 DE 4B CB CF 07 C7 FD 2A 88 
CA 64 5C 64 64 DB 43 0F 56 C2 B6 5C 00 11 04 2A 8B 75 68 3C 43 45 A1 E5 CB CB 6F BB CD 47 95 56 
2A 95 6E C6 8C A1 DF 7C 13 3D 77 6E 7F AE 84 01 27 2D 86 E9 B9 88 24 01 42 73 73 5B 3E 99 EC 2C 
35 00 8D 5B B6 D4 3E F6 18 55 F9 C5 3D F0 40 4A 41 41 70 EF 9D 23 FA 63 CF F6 F9 7C 8D 8D 1E A3 
D1 67 34 FA 8C 46 6F 6D 6D D3 D6 AD FA 9B 6E F2 56 56 72 91 91 09 8B 17 27 3C FA 28 09 76 67 F3 
9F EC B9 E8 E8 BE D4 17 32 D2 19 80 95 A4 96 6D DB 4A B2 B3 5B DE 7C 93 8A 72 F2 D4 D4 C1 5B B7 
C6 2D 58 D0 EF 3B 5F AF FD 6E FD 89 7D 2D 2D 67 2F 5C 92 EA 5F 7C B1 F6 C9 27 89 20 80 61 E2 1E 
7C 30 B5 A0 80 55 2A FB 85 DF FD 21 8D 33 0C C3 71 81 83 26 95 68 1C C7 8F D7 2D 5F 4E B7 E4 98 
DC DC B0 0B 2E A0 9D 4E 7C 3E C1 DF E6 B0 8B 2F 66 7B 3C 45 18 9E A7 73 CB 7D EA 54 E7 09 00 C1 
68 2C BF EB AE CA F9 F3 DD 27 4F D2 2C 69 1B 36 44 E6 E4 F4 CF CC F0 0F 32 3E 36 96 8B 88 E8 61 
26 16 E0 75 3A FA DD D5 5E E7 DA 29 68 77 D4 BF F0 42 DD D2 A5 6D F3 7B D1 A2 C4 C7 1F EF 17 29 
E4 B7 32 71 B2 80 69 DB 36 7A D4 96 A5 A6 2A 32 33 29 AD 62 6B AB F3 F0 61 9A 46 7B C3 0D 4C CF 
BC 95 09 20 4F 4B A3 89 AD 9F 7F DE 4D 4A 06 68 DA B1 43 FF D7 BF 3A BE FD 16 00 C3 F3 C9 F9 F9 
9C 52 79 4E 8D 01 00 88 0E 87 AF A6 06 00 18 46 FD A7 3F F5 A4 E3 E8 D1 5C 9E 9E 4E 1F AD 5F 7C 
D1 93 8A DA F8 FD FC F3 F5 AB 56 D1 37 71 0B 17 C6 DE 79 27 01 7A 65 F6 08 C5 6F 68 CF 26 1E 8F 
E8 70 00 00 CB D2 4D 8E 01 04 AF D7 BA 7F 3F 4D A0 19 37 4E 35 7C F8 59 07 2C 01 64 1A 4D D8 E5 
97 03 90 3C 1E F3 FB EF 07 8B F7 A1 AB 34 07 38 0D 86 8A F9 F3 DD 25 25 00 C2 B2 B3 B9 C8 C8 73 
9C 16 74 D9 30 ED D8 41 1F 63 EE B9 87 51 28 7A 42 B9 3C 23 43 73 D5 55 00 EC 5F 7F ED 2E 2D ED 
E1 3A D6 C6 EF E5 CB 5B B6 6E 05 C0 45 46 A6 6D D8 10 3B 63 06 21 E4 5C 22 37 7E 43 66 B3 6A 75 
9B 4A D5 EB 25 7E EB 02 03 D8 0E 1E B4 ED DF 0F 80 51 28 12 96 2E 3D 2B ED 12 A0 1E 35 2A 62 E2 
44 00 4D 1B 36 04 84 5B 09 88 98 38 31 F5 F9 E7 19 BE E3 99 82 03 6C A7 4E 99 3F FC 90 3E D2 13 
FF 39 42 14 04 F3 FB EF D3 3D 28 6C F4 E8 A8 39 73 CE 4A 39 03 68 6F B8 41 96 94 04 A0 E1 C5 17 
7B 72 34 0F CE 2B 09 42 F5 C2 85 2D 6F BD 05 80 D3 6A 07 BD FE BA F6 BA EB 70 0E 93 BB 9F 98 1D 
22 34 49 80 76 E2 44 AA 28 75 95 96 BA 4A 4A 18 7F 7D 5E B3 B9 7E D5 2A 2A A3 46 4E 9B 96 B0 70 
61 37 1B 92 04 F0 4A 65 CC DF FF CE 86 85 39 BE FF BE 71 ED DA 60 0D B3 AF AE 2E FA CE 3B 15 43 
87 76 9A 9D F8 C3 9C 3C 15 15 3D 9A 52 DD 4E 1A 16 B0 1D 3D DA E8 D7 88 25 AD 58 A1 BE E8 A2 6E 
A4 3F 09 50 0C 1A 14 77 FF FD 00 9A 36 6D B2 7E FE 79 47 1A 68 75 5D 57 CA 00 3E AB B5 7A D1 A2 
B6 F9 1D 11 21 4B 48 00 C3 F4 79 72 F7 85 D9 D4 08 23 B9 5C F4 91 8F 8F E7 E3 E2 02 1A 34 FA 51 
24 25 25 3E F9 24 3D 6C 98 B6 6E 75 D5 D5 05 6A E2 00 CB BE 7D F5 CF 3E 2B 5A 2C 0C C7 25 3D FB 
6C EC BC 79 E0 79 B1 3D CB DB 8C 57 1C 17 BB 60 41 F4 ED B7 7B 2B 2B 6B 1F 7D D4 53 57 17 DC 65 
F4 AC 95 F2 C2 0B AC 46 13 3C E0 45 40 2E 97 AB AF B8 02 80 F9 83 0F A8 66 AA AB 86 30 1C D7 76 
94 62 59 22 8A DD B8 B2 30 92 D4 90 9F 6F 7C E9 25 10 22 4F 4B CB D8 B5 4B 93 9D 2D 85 84 42 52 
0B 95 22 3E 3E FD DF FF 56 64 65 99 DE 79 A7 F6 F1 C7 25 41 E8 60 D5 6E DB 80 19 A6 9B 1A A9 8E 
BD 7A E1 42 D3 B6 6D 5D 24 E9 05 7A 6F F5 E2 79 4E A5 92 45 45 45 4E 9B 46 CD C3 B2 F8 F8 C4 A7 
9F 8E 9A 30 21 EC 82 0B 54 59 59 9A EC EC D8 BC BC 21 7B F7 86 65 67 43 14 1B 57 AF 36 6E DE DC 
61 9D 65 81 86 F5 EB 2B E6 CD 73 16 17 73 5A ED E0 B7 DE 1A B4 6E 9D 26 3B 9B 95 CB 7D 00 FD 00 
50 67 67 0F DA B2 25 75 ED 5A EB 9E 3D FA A9 53 2D 07 0E 04 93 CB 00 1E 93 49 72 BB 23 FE F2 97 
F4 37 DE 50 0D 19 22 02 3E 40 04 94 49 49 49 CB 97 47 4C 99 E2 D1 EB EB 9E 7C 32 D8 44 DD A1 21 
BC 56 1B 73 D7 5D 7C 6C 2C 00 E5 90 21 DA 49 93 38 A5 92 53 A9 42 B7 06 5A 23 21 A4 E6 91 47 EA 
9F 79 C6 5B 55 A5 1C 3A 74 E8 81 03 89 0F 3F AC 1E 3A 54 F2 93 2D 00 0C C7 45 8E 1F 9F F5 D9 67 
EA B1 63 8D EB D7 57 2D 5C E8 B3 5A 99 F6 55 F3 3A 9D 6E E6 4C 00 8A 21 43 74 57 5E C9 A9 D5 9D 
D6 08 FF FC AE FA C7 3F AC 7B F6 00 7D B7 82 A0 0F 1A B4 C8 E9 D3 23 6E BC 11 2C 1B 9E 93 23 DA 
6C 6D 46 A7 49 93 D4 63 C7 BA 7E FA 09 92 C4 C7 C6 AA 46 8D 12 8C 46 F3 07 1F B4 7E FC B1 E9 DF 
FF 26 84 84 12 C8 02 2D 1F 7D E4 38 7A 34 26 2F 2F F2 A6 9B 62 EF BB 2F E6 6F 7F B3 ED DF EF FA 
F1 47 B0 2C E1 79 45 62 A2 E6 DA 6B 7D B5 B5 B5 8F 3D D6 B4 65 8B D7 6A 0D 15 DC 19 C0 75 FC 38 
C3 B2 DA C9 93 87 5D 7B 6D EB 27 9F 08 26 13 A7 52 85 8F 1F AF 1C 3E DC BA 67 4F CD A3 8F 3A 4F 
9D EA 74 44 87 5F 77 5D D4 9C 39 44 92 34 57 5D 25 39 9D 90 24 56 A5 4A 5A BA 54 9B 93 03 96 6D 
2D 2C B4 84 2E BC 94 DF 92 54 B3 62 85 65 CF 9E A8 DB 6F 8F 98 32 25 A5 A0 20 61 C9 12 EB DE BD 
BE 9A 1A C2 B2 9C 4A A5 C8 CC 54 5E 78 A1 AB A4 A4 7E C5 8A D6 C2 42 D2 7E 4A 89 40 D4 E4 C9 D1 
79 79 EA EC 6C D1 6A E5 22 23 53 5F 7E D9 F5 C3 0F D6 03 07 CC DB B6 91 CE F6 75 BA F7 55 2E 5A 
94 B5 6B 97 6A E4 C8 AE 86 C5 59 D1 EB 6C EE 5F 7E 81 24 49 6E 77 CB 9B 6F 12 9F 2F F0 9E E1 F9 
36 33 97 28 42 10 C4 D6 56 77 69 A9 D7 ED EE C6 F2 CA 01 9E DA DA 9A 95 2B 5B DE 7E 5B 75 D1 45 
AA 8B 2E 92 A7 A7 87 E7 E4 48 2E 97 B7 AA CA AD D7 9B B6 6F B7 7F F7 9D C7 68 64 FD D1 C6 1D C0 
02 35 8B 17 B3 6A 35 AB 56 87 65 67 2B 87 0C D1 8C 1D 4B 08 B1 EC D9 53 B7 7C B9 75 EF 5E 9F D9 
DC D5 DA E5 29 2B 6B FD EF FF 26 5E AF F9 DD 77 25 AF B7 AD 15 4A 25 AB 52 01 F0 1A 0C DD CC 20 
16 B0 1E 39 62 3B 72 24 6C D3 26 D5 C8 91 AA 8B 2F 56 64 64 84 4F 98 20 D9 ED AE 92 12 DB 57 5F 
D5 AF 5A E5 38 72 44 F0 78 42 4D 2F 0C E0 39 73 C6 F4 CE 3B 4D 1B 36 D0 0E 64 95 4A 56 A3 F1 56 
55 75 A3 19 E5 00 D7 E9 D3 86 99 33 95 C3 86 79 AB AB FB 36 BB 7B CD 6C C7 89 13 F6 13 27 CE 9A 
8C 6A 57 CE 5A 3A E5 84 BB AA CA 55 55 C5 7C FA 29 0B 70 3A 1D 0D 2F 96 24 89 F8 8D F6 DD C0 65 
30 00 20 80 B5 A8 88 05 78 AD 16 80 60 B5 4A 7E 27 8B AE E0 D6 EB 9D 7A 7D 37 84 75 DF A1 94 2A 
67 69 A9 A3 B4 94 DD B9 93 E5 79 36 3C 1C A2 28 5A AD A2 BF 84 AE 06 A8 AB B4 D4 51 5A DA E1 7D 
F7 0E A9 B4 46 E7 A9 53 8E 53 A7 FA 60 BB A3 E8 35 B3 7F 8B B3 5A B0 BF 0E B5 4F F7 BC A2 0E C9 
A8 BB 19 73 B6 21 D2 C3 34 3D AF 5D 12 04 C9 6C FE AD AB 3E C7 CE EF 07 AB 57 3F E2 DC 8D 54 FD 
68 E6 FA 43 D4 DB 2B 0C 44 84 9C 47 18 60 F6 79 84 01 66 9F 47 18 60 F6 79 84 01 66 F7 1D 7F B8 
8B C3 7A 2D 8D 77 B0 2A 86 9E 0E 83 AD 1A C1 21 1A 5D A5 0F 2D 93 F5 47 50 92 6E 8B 0A 4E DC A1 
5E F8 6B E9 C6 50 D1 21 63 20 12 13 41 C1 9B 5D C5 C4 B4 1D E2 79 5E 14 04 12 92 32 94 92 4E 29 
0C 05 3D 8F 75 D0 B4 77 08 37 E9 D0 21 BD 42 AF 03 FB 94 19 19 EA 3F FD 49 68 68 90 04 81 8B 88 
20 2E 97 ED EB AF 89 5F 03 C5 AA D5 11 39 39 00 44 8B 85 55 A9 58 95 CA FA F9 E7 6C 78 B8 66 DC 
38 C9 E1 90 5C 2E 6F 65 A5 AB B2 B2 C3 29 53 3D 6A 94 72 F8 70 5F 63 23 23 97 73 6A B5 E3 D8 31 
4F 65 A5 2C 2E 4E 3D 76 AC E4 72 11 AF 97 0B 0F 27 1E 8F FD DB 6F F9 B8 B8 B0 4B 2F 15 CD 66 22 
8A AC 4A C5 E9 74 8E 43 87 BC 95 95 00 34 D9 D9 CA 0B 2F 14 1A 1A 88 24 71 91 91 AE 9F 7E 02 CB 
AA AF BC 52 A8 AB 93 BC 5E 46 26 63 95 CA 80 BD 48 F2 78 3C 06 83 A7 BC 9C 66 54 64 65 B1 2A 15 
F1 F9 88 20 30 2C CB 27 24 08 46 A3 F3 D8 31 E7 A9 53 68 DF A7 04 60 39 2E E2 FA EB B5 E3 C7 13 
49 92 1C 0E D7 2F BF 78 F4 7A F7 C9 93 6D 31 AD 5A AD F6 CA 2B 19 96 15 ED 76 56 2E E7 22 23 1D 
DF 7F EF AE AC 94 C7 C5 E9 66 CE F4 D5 D6 12 AF 17 0C 43 04 41 72 B9 18 96 65 D5 6A 10 42 24 89 
8F 8C 04 CB 5A 3E FB 2C 6A F2 64 C1 64 92 9C 4E 00 7C 54 94 F3 F8 71 6F 79 79 A0 6F 89 CB 25 79 
BD 7C 54 94 D8 DA 6A 3F 74 88 74 A6 F6 EF 37 66 33 2A 55 D8 25 97 E8 66 CE E4 A2 A2 DC BF FC D2 
58 50 C0 B0 AC 14 88 66 E6 38 3E 26 46 77 CB 2D E1 D7 5C E3 AD AC 34 BE FC 32 E1 38 56 A9 54 0C 
1E 1C 3D 6F 9E 3C 33 D3 FD F3 CF 15 77 DF ED 38 79 32 98 DF AC 46 A3 BE E2 0A DD EC D9 BE FA FA 
96 D7 5E A3 2E 57 AC 5C AE C8 C8 48 58 B2 84 D3 68 DC A5 A5 0D 05 05 60 59 56 A5 52 8D 1C 19 FF 
F0 C3 60 18 67 71 B1 E5 E3 8F 5D 4A 25 A1 9E 51 11 11 CA 61 C3 A2 9E 7D 56 9E 9C 6C DC B4 C9 73 
E6 0C C3 71 8A B4 B4 C4 47 1F 95 A5 A5 09 8D 8D 1E BD BE CD E5 8F 65 95 C3 86 35 BF F2 4A F5 B2 
65 2C C0 6A 34 CA 61 C3 92 9E 79 06 80 69 FB 76 47 51 91 22 2D 4D 37 7D BA 3C 3D DD FC FE FB 0D 
F9 F9 5E A3 91 0D 70 5A A9 4C 5A B6 2C E6 AE BB CC 3B 77 BA 4A 4A 94 43 86 0C 7A E5 15 5F 75 F5 
99 89 13 BD 8D 8D 00 C0 71 7C 5C 5C C2 23 8F C8 D3 D3 7D 75 75 CD AF BD E6 3A 71 82 00 9A 2B AE 
48 DB B8 D1 FE ED B7 C4 E5 22 82 C0 C7 C5 29 B2 B2 88 20 38 8F 1E 65 38 8E F8 7C AA D1 A3 25 AB 
D5 BA 67 8F 3C 25 25 FE A1 87 54 A3 46 49 5E 6F C3 AA 55 EE D3 A7 DB 56 1D 8E E3 63 62 12 9F 78 
42 9E 96 66 FD F2 CB E6 57 5F 0D F4 7C 8F F9 E7 47 F5 23 8F 1C 06 4E 8E 1C 29 B4 B4 9C BA EE BA 
23 C0 D1 CE 3E 47 80 22 C0 7E E8 10 21 A4 EC 96 5B 8A 42 12 1C 02 4E 4F 98 20 79 BD E5 79 79 87 
81 A3 C0 F7 40 11 60 DC BC 99 56 E4 28 2E 3E 71 D1 45 87 83 B2 1C 06 0E 03 F6 23 47 5A DE 7B EF 
30 F0 BD 3F D7 61 C0 7A F0 20 91 A4 8A 7B EE 39 E4 AF FD 7B C0 B4 6B 17 21 A4 71 CD 9A 22 E0 48 
50 21 47 01 D7 2F BF B4 6C DB 76 8C E7 8F F8 49 6D D9 BE 9D 10 D2 F2 EE BB 3F A5 A7 FF 9C 95 F5 
73 56 D6 89 0B 2E 68 5C B7 AE 71 FD FA C3 41 65 D2 64 67 A6 4E 3D 04 14 01 C7 E3 E3 69 2D F5 F9 
F9 DF 2B 14 94 A4 22 40 3F 75 2A 21 A4 21 3F 9F 16 7E 18 38 73 E3 8D DE BA BA 93 23 47 1E F1 93 
7D 08 30 6E DC 48 08 31 FD D7 7F 51 0A 8F 00 95 F7 DD D7 F2 DE 7B 3F 67 64 FC 9C 95 F5 53 7A 7A 
D5 C2 85 44 92 84 96 96 36 AA 32 32 4A B2 B3 3D 95 95 47 59 B6 08 28 C9 CE F6 94 95 11 42 0C 73 
E7 06 77 D4 51 86 F1 D6 D5 59 BE F8 E2 87 E4 E4 6E 18 74 72 C4 08 77 45 45 D9 CC 99 45 40 E9 D5 
57 07 58 DC 6B 01 8D 6E 9C A2 CD 06 C0 5B 55 15 AA F6 E3 00 BA 0A 39 8F 1E A5 83 8E EE 7F A2 DD 
EE 29 2B F3 56 54 84 5D 72 49 DA BA 75 CA E4 64 29 28 8B 04 08 4D 4D F0 F9 38 96 0D E4 62 01 A1 
A5 45 72 3A 7D 0D 0D 5C 50 ED C6 35 6B 00 68 AE B9 26 AC BD 0B 4A F8 F8 F1 B2 A4 A4 C6 D5 AB 45 
41 60 FD BA 71 C9 66 03 E0 33 1A 1D E5 E5 2E BD DE A5 D7 3B CE 9C 69 5C B3 86 2E FE B4 4C 96 E3 
24 8B 05 D4 BB 06 E0 01 77 63 63 E3 EA D5 00 A2 EF B8 43 95 9E 1E D8 29 69 1C A1 60 32 51 CD 3F 
07 98 76 EF AE 5B B1 42 F4 1B 31 29 D9 92 C3 01 40 B2 5A 03 FA 79 3E 2A CA BC 6D 9B CB 60 70 E9 
F5 CE F2 72 6F 79 39 F1 7A 25 A7 D3 49 A9 32 18 6C C5 C5 8E 43 87 18 99 8C 07 AC C5 C5 75 2B 57 
12 9F 2F 75 CD 1A B5 DF 35 43 02 92 9F 7F 9E 95 CB AB 17 2E F4 D6 D6 F6 41 B4 EE 8B 34 CE F8 23 
CC BA 34 C1 F2 3C 0D ED 6C F7 92 E3 3C 15 15 65 33 66 78 CA CA C2 73 72 52 9E 7F 5E A6 D5 4A 1D 
72 85 16 C5 71 D4 7B 35 B8 76 F7 E9 D3 F6 FF F9 9F B0 EC EC B0 31 63 02 EF 25 20 6A CE 1C 77 49 
89 FB D4 A9 76 2B 1B 25 35 C8 FF 95 63 59 D1 6C 36 AE 5B 17 54 28 D3 C1 F5 91 01 44 B3 59 B4 58 
B8 F0 70 C6 EF AF C8 00 74 9B 4F 7C EA 29 DD D4 A9 D4 EF 80 03 9A FF F5 2F 6F 87 80 04 EA 3A ED 
2F 93 05 1A 0B 0A 5A 77 EF 0E 0C 41 EA 0A 00 86 09 BC E1 80 8A DC 5C BA 07 F3 40 D3 D6 AD 96 CF 
3E E3 E3 E3 53 56 AF A6 CB 75 D8 88 11 31 F7 DC 63 7C F9 65 57 69 E9 7F 44 B5 DE 3B 30 3C EF 28 
2E 36 CC 9A E5 AD A8 88 BA E3 8E D4 F5 EB 39 8D A6 B7 07 18 06 F0 34 37 9B B6 6F 07 A0 9B 35 8B 
93 CB A9 78 1C 96 94 14 9E 93 63 DA BE 5D 74 38 3A DD C6 18 FF F6 16 79 E3 8D 69 5B B6 74 EF 11 
46 A3 3E B9 88 08 5F 5D 9D 18 64 9B 69 FD F8 E3 96 AD 5B D9 B0 B0 CC 8F 3F 4E 5C BA 54 9E 94 24 
01 3D F1 03 94 5C AE 50 E7 AD 8E 69 82 AE 8B 66 24 A9 E6 91 47 44 9B 2D 3C 27 27 6A CE 1C 11 48 
59 B9 92 38 9D 8D 05 05 7D D6 C3 FF DE E7 6C 86 E3 EC C5 C5 86 D9 B3 7D 35 35 D1 F3 E6 0D DA B4 
89 D7 6A FB C0 6F DB BE 7D DE CA 4A DD 8C 19 34 46 90 50 97 37 8D C6 BA 67 4F A7 A5 69 6F B8 21 
F3 B5 D7 D2 DF 79 27 FD AD B7 92 9E 7B AE 2B 7F 0F C9 E1 A0 3E 27 CA A4 A4 B8 87 1F 96 1C 8E 86 
82 02 B7 3F CA 97 01 44 8F A7 66 F1 E2 E6 37 DE 00 90 F4 CC 33 99 85 85 BA 1B 6F EC C6 AF A8 CF 
60 00 B7 5E 5F BF 62 05 1B 16 16 B7 68 51 EA E2 C5 9A 6B AE A9 7A F0 41 6A D6 EB 1B 7E 77 66 03 
2C 60 39 72 A4 E2 EE BB 25 AB 35 FA 8E 3B D2 36 6E A4 46 E8 9E 3B DC B0 80 F3 CC 19 CB EE DD 0C 
CF D3 38 6F 9E E7 75 B7 DC 62 3B 70 C0 AD D7 77 68 12 43 08 00 C9 E1 F0 35 37 7B 6B 6A 7C 0D 0D 
A2 CD 16 EA AF 4E 1D 07 74 33 67 A6 3E FE 78 D6 2B AF 64 7E F8 A1 6E DA B4 EA C5 8B 9B FF F5 AF 
C0 92 40 AB F6 36 37 57 CE 9F 5F 91 9B EB 2E 29 51 5F 76 59 E6 07 1F 24 3D FA 28 DB DF 41 78 14 
C6 B5 6B AD 7B F7 86 8D 19 93 9C 9F 6F F9 F4 D3 D6 C2 C2 73 29 ED 9C 98 DD 5D CC 59 B7 CB 1A 0F 
B4 7E FE 79 C5 FC F9 C4 E9 8C BA E3 8E D4 35 6B 58 20 D8 EF A5 27 55 5B 3E FD 54 B4 58 62 FF F6 
37 86 65 55 C3 87 AB 2F BF BC 75 D7 2E 31 C4 D3 96 5E D9 6A DD BF BF 62 C9 92 CA 25 4B 2A 96 2C 
A9 7D EC 31 5F 4D 4D 87 91 45 DD FF 18 8E 73 9D 38 E1 3C 7E 5C 39 64 88 E4 F1 C8 62 62 A4 10 9F 
AA 36 21 71 EB D6 B2 9B 6F 6E D9 BA 95 51 28 92 57 AD 0A 8E 2D ED 2F 30 80 28 8A 75 4F 3D 05 49 
22 5E 6F D3 96 2D 92 28 9E 8B 2D B5 AF F6 6C 86 01 A0 1A 3D DA 5E 54 D4 E1 17 02 70 5A 2D D7 3E 
D6 32 14 2C D0 B2 6B 17 80 F4 6D DB A2 E7 CF B7 1F 3E CC B0 6C CF 23 1E 58 C0 BA 77 AF AB A4 44 
73 C5 15 11 93 27 AB 46 8C 10 1A 1B 6D 5F 7D D5 D5 E0 65 15 8A 80 EB 88 A3 A8 C8 75 F2 24 43 5B 
E1 1F 94 54 3C 6C FD E4 93 E6 4F 3E 61 01 4F 59 D9 05 BB 77 27 2E 5B E6 AD AE 36 6E DD DA 61 1D 
60 FC 7E 23 95 0B 16 48 2E 57 EC 82 05 D1 F3 E7 DB 0E 1C E8 D4 83 EC 1C E1 6B 6C 14 2D 16 56 2E 
A7 27 A0 73 41 1F A5 71 EB 97 5F 02 88 B9 FD 76 F0 7C 40 DD 18 D8 BA 22 A7 4D F3 56 57 FB DA BB 
FD 22 44 8A 61 01 D3 AE 5D 15 77 DE 49 3C 9E D4 0D 1B C2 27 4C A0 27 96 4E 10 B2 4E D0 E0 12 4B 
61 21 24 29 71 D9 B2 C8 E9 D3 2D 9F 7F EE 32 99 3A 71 11 F4 BB 67 07 28 94 04 41 30 9B A3 E6 CE 
D5 CD 98 D1 71 70 49 12 1D 13 96 3D 7B AA 1F 7A 88 E1 F9 B4 8D 1B 23 C6 8D A3 2B 98 08 44 E7 E5 
45 4E 9B 16 70 3C 12 DC EE E6 57 5F F5 35 36 2A 87 0D EB E4 34 D1 CD F2 D6 63 DF 6F 46 26 A3 92 
5D 0F 43 A5 BA 41 5F 98 CD 02 2D 6F BF ED AD AC 54 5F 75 D5 A0 35 6B 14 19 19 81 83 0D 17 1B 9B 
B8 68 51 D4 9D 77 36 AC 5E ED 6B 68 08 A8 9A 25 00 2C 0B 96 15 45 B1 83 6A BD 79 FB F6 8A BB EE 
82 24 31 3C 1F 3C B3 A9 F7 35 43 43 87 38 2E 74 CA B3 80 79 D7 2E 5F 43 83 FA B2 CB 64 09 09 E6 
F7 DF 0F D5 D2 8B FE BD 86 91 CB 99 20 81 5C 99 91 11 93 97 F7 6B 32 41 A0 1D CA AA D5 01 FD 73 
F3 AB AF 36 6D D9 C2 6A 34 83 B6 6C 51 A6 A7 0B 80 04 C8 93 93 E3 FE F1 0F 99 4A 25 F8 3D E4 65 
89 89 B2 B8 38 C7 37 DF 48 FE 6D 48 A2 01 C6 00 24 49 0C 91 DD 28 55 6D 82 37 21 62 B7 0A 7C 91 
EA 09 58 16 3C 4F AF B7 38 17 F4 65 19 67 00 6F 6D 6D F5 A2 45 89 4B 97 C6 3E F0 80 EE D6 5B 2D 
BB 77 4B 2E 17 23 97 AB 2F BB 4C 35 72 64 ED 13 4F 34 6D DA 44 FC 3A 54 79 52 52 CC C4 89 51 B3 
66 C9 12 12 12 1E 7C D0 59 5C 6C FB FA 6B 26 A8 B4 E6 6D DB 64 49 49 29 F9 F9 81 80 47 02 C8 E2 
E2 62 26 4F D6 5E 7F 3D A3 50 24 3E F9 A4 44 88 FD 8B 2F 82 A7 3E 03 38 0D 06 DB 81 03 51 73 E7 
7A CA CA AC 47 8E B4 53 C1 AA D5 DA AB AF 96 0F 1E AC 9D 34 09 40 F4 AD B7 B2 4A 65 DB 89 59 92 
94 C3 87 87 8D 1E 5D B7 6C 19 80 F0 31 63 C2 2E BF 9C 5E A1 11 F7 C0 03 8C 42 61 FB E2 0B 8F C1 
20 B8 5C F5 CB 97 F3 3A 9D 6E F6 EC 8C 1D 3B 8C 6B D7 B6 EE DD EB 3C 7E 3C E9 D9 67 33 0B 0B 9B 
5E 79 C5 53 5E AE BA F0 C2 A4 15 2B 9C C7 8F 37 14 14 10 51 64 00 4E AB 8D 98 38 51 77 F3 CD 00 
B4 93 26 25 DC 73 8F ED CB 2F 3D E5 E5 81 F6 6A B2 B3 55 97 5E 1A 39 65 0A A3 50 C8 52 52 52 1E 
79 C4 7D FA B4 FD E0 41 B1 33 31 3B 6E D6 2C F5 A5 97 F2 D1 D1 00 E2 1F 7A 28 EC E0 41 D3 FB EF 
F7 39 02 A8 8F 7B 36 03 B4 7C F4 91 F3 87 1F 74 B7 DC A2 19 37 4E 7D D9 65 0C CF FB 9A 9A 1C 87 
0E D5 2E 59 D2 FA E9 A7 08 92 60 19 96 E5 C2 C3 9B 36 6F 26 82 C0 6B B5 6C 58 58 F0 85 0B F4 8B 
F1 A5 97 18 96 F5 51 F5 32 7D CF F3 5C 44 44 DD F2 E5 C4 E7 E3 C2 C3 79 B5 9A 30 4C 87 9B 1A 38 
A0 F9 D5 57 65 29 29 CD 6F BF DD 21 DE 82 E1 38 36 2C 8C 8F 8C 6C DA BC 99 F8 7C 8C 4C C6 51 99 
1F 00 E0 D1 EB 9B 36 6D 72 EB F5 8C DF 7D B8 69 C3 06 C9 ED 66 95 4A 5E AB A5 EA 20 16 F0 34 34 
54 CC 9F 6F FF EE 3B F5 D8 B1 9A AB AF 76 9D 3C E9 2C 2E AE 5E B4 48 91 95 A5 BB F9 66 E2 72 C9 
52 53 5B 3F FE D8 B8 6E 1D BD F3 89 4E 62 5E A3 31 BD FB AE E8 74 D2 D2 58 B9 BC 5D 7B E5 72 5E 
AB 75 1E 3B 66 FF F6 5B 86 65 39 AD 96 55 A9 68 C4 7D 27 DE F5 6A B5 68 B3 D5 FC F3 9F A0 1E C7 
5A 2D 73 0E C7 BC 5E 5F 7A 17 0C BA E2 C9 54 2A 3E 2A 0A 80 68 B3 51 1F DE D0 7B 08 3B DC 43 DB 
A9 95 13 00 13 24 31 91 10 8B 5E E7 5B 16 CB CA E2 E2 84 E6 E6 50 E1 48 EA 76 85 04 BD F3 B0 B3 
64 C1 BE EE 94 0C 8E 61 68 90 A2 E8 76 D3 CB 56 15 51 51 7C 6C AC 68 B1 78 1A 1A 10 12 06 40 BA 
28 0D ED 2D AA 81 A6 75 E5 1D 2C 86 A4 3C EB BE DD CD A5 77 E7 E4 5D 4A 5B 28 BA 5C 42 6D 2D 02 
CA C8 90 64 3D F4 AE 05 DA 89 2D 3D F5 B7 95 24 6F 43 03 3A 9D 16 3D 13 49 BA 4F 46 C9 20 84 88 
6E 77 B0 33 BC CF 64 F2 9A 4C 9D 1A 95 BB 27 BB 57 52 52 FF FE AF AD 7E 70 25 66 BA 18 95 BF 1B 
7E 87 DA 3B 8D 03 FA 43 B8 0F 07 63 C0 2D E9 3C C2 00 B3 CF 23 0C 30 FB 3C C2 00 B3 CF 23 0C 30 
FB 3C 42 E7 D2 38 F1 F9 7E 0B 1B ED 00 7E 07 10 80 78 BD 4C 67 BA F7 4E 98 4D 24 49 96 90 20 8B 
8D 1D F8 2F BB 7F 44 10 42 64 C9 C9 E0 B8 50 5B 4B 47 66 33 32 19 AB 52 A5 BD FC F2 C0 FF CF FE 
A3 C2 FF FF B3 11 62 85 6B F7 CC 00 DE 8A 8A CA 05 0B 64 09 09 BD BE A1 73 00 FF 47 C0 30 F4 EA 
0A C7 E1 C3 1D 56 E6 20 66 13 C2 00 3E 93 C9 F8 CE 3B BF 2F 75 03 F8 4D D0 A6 93 0F 9A B1 BF 32 
9B E1 79 56 A9 EC 97 CB 27 06 F0 7F 04 34 84 25 F0 F8 AB D5 6B 00 FF EF 31 20 6F 9F 47 18 60 F6 
79 84 FF 05 09 CC 69 8F C5 B7 64 5A 00 00 00 00 49 45 4E 44 AE 42 60 82 
EndData
$EndBitmap
Text Notes 1800 1800 0    100  ~ 0
68 pin VHDCI\nfrom FPGA module
Text Notes 4500 1800 0    100  ~ 0
40 pin ribbon\nto DDS board
Text Notes 7450 1600 0    100  ~ 0
Spare/SMA
$Comp
L Device:Jumper JP1
U 1 1 634060EB
P 7400 4050
F 0 "JP1" H 7400 4200 50  0000 C CNN
F 1 "Jumper" H 7400 3970 50  0000 C CNN
F 2 "Connector_PinHeader_2.54mm:PinHeader_2x01_P2.54mm_Vertical" H 7400 4050 50  0001 C CNN
F 3 "~" H 7400 4050 50  0001 C CNN
F 4 "732-5315-ND" H 7400 4400 50  0000 C CNN "CatNo"
	1    7400 4050
	1    0    0    -1  
$EndComp
Wire Wire Line
	7100 4050 6650 4050
Wire Wire Line
	7700 4050 8100 4050
Text Label 6700 4050 0    50   ~ 0
DIO21
Text Label 7800 4050 0    50   ~ 0
DIO22
$Comp
L Mechanical:MountingHole_Pad H1
U 1 1 63416E31
P 6850 5200
F 0 "H1" H 6850 5450 50  0000 C CNN
F 1 "MountingHole_Pad" H 6850 5375 50  0000 C CNN
F 2 "MountingHole:MountingHole_3.5mm_Pad" H 6850 5200 50  0001 C CNN
F 3 "~" H 6850 5200 50  0001 C CNN
	1    6850 5200
	1    0    0    -1  
$EndComp
$Comp
L power:GND #PWR0114
U 1 1 63417087
P 6850 5300
F 0 "#PWR0114" H 6850 5050 50  0001 C CNN
F 1 "GND" H 6850 5150 50  0000 C CNN
F 2 "" H 6850 5300 50  0001 C CNN
F 3 "" H 6850 5300 50  0001 C CNN
	1    6850 5300
	1    0    0    -1  
$EndComp
$Comp
L Mechanical:MountingHole_Pad H2
U 1 1 634176BE
P 7600 5200
F 0 "H2" H 7600 5450 50  0000 C CNN
F 1 "MountingHole_Pad" H 7600 5375 50  0000 C CNN
F 2 "MountingHole:MountingHole_3.5mm_Pad" H 7600 5200 50  0001 C CNN
F 3 "~" H 7600 5200 50  0001 C CNN
	1    7600 5200
	1    0    0    -1  
$EndComp
$Comp
L power:GND #PWR0115
U 1 1 634176C4
P 7600 5300
F 0 "#PWR0115" H 7600 5050 50  0001 C CNN
F 1 "GND" H 7600 5150 50  0000 C CNN
F 2 "" H 7600 5300 50  0001 C CNN
F 3 "" H 7600 5300 50  0001 C CNN
	1    7600 5300
	1    0    0    -1  
$EndComp
$Comp
L Mechanical:MountingHole_Pad H3
U 1 1 63422656
P 8350 5200
F 0 "H3" H 8350 5450 50  0000 C CNN
F 1 "MountingHole_Pad" H 8350 5375 50  0000 C CNN
F 2 "MountingHole:MountingHole_3.5mm_Pad" H 8350 5200 50  0001 C CNN
F 3 "~" H 8350 5200 50  0001 C CNN
	1    8350 5200
	1    0    0    -1  
$EndComp
$Comp
L power:GND #PWR0116
U 1 1 6342265C
P 8350 5300
F 0 "#PWR0116" H 8350 5050 50  0001 C CNN
F 1 "GND" H 8350 5150 50  0000 C CNN
F 2 "" H 8350 5300 50  0001 C CNN
F 3 "" H 8350 5300 50  0001 C CNN
	1    8350 5300
	1    0    0    -1  
$EndComp
$Comp
L Mechanical:MountingHole_Pad H4
U 1 1 63422662
P 9100 5200
F 0 "H4" H 9100 5450 50  0000 C CNN
F 1 "MountingHole_Pad" H 9100 5375 50  0000 C CNN
F 2 "MountingHole:MountingHole_3.5mm_Pad" H 9100 5200 50  0001 C CNN
F 3 "~" H 9100 5200 50  0001 C CNN
	1    9100 5200
	1    0    0    -1  
$EndComp
$Comp
L power:GND #PWR0117
U 1 1 63422668
P 9100 5300
F 0 "#PWR0117" H 9100 5050 50  0001 C CNN
F 1 "GND" H 9100 5150 50  0000 C CNN
F 2 "" H 9100 5300 50  0001 C CNN
F 3 "" H 9100 5300 50  0001 C CNN
	1    9100 5300
	1    0    0    -1  
$EndComp
Text Notes 6750 7750 0    100  ~ 0
DDS Breakout Board
Text Notes 10000 7900 0    100  ~ 0
A
$Comp
L Connector:Conn_Coaxial J13
U 1 1 63382F76
P 9950 3650
F 0 "J13" H 9960 3770 50  0000 C CNN
F 1 "SMA" V 10065 3650 50  0000 C CNN
F 2 "Connector_Coaxial:SMA_Amphenol_132291-12_Vertical" H 9950 3650 50  0001 C CNN
F 3 " ~" H 9950 3650 50  0001 C CNN
F 4 "ACX1230-ND" H 9950 3650 50  0001 C CNN "CatNo"
	1    9950 3650
	1    0    0    -1  
$EndComp
Wire Wire Line
	9750 3650 9450 3650
Text Label 9450 3650 0    50   ~ 0
DIO0
$Comp
L power:GND #PWR01
U 1 1 63382F7E
P 9950 3850
F 0 "#PWR01" H 9950 3600 50  0001 C CNN
F 1 "GND" H 9950 3700 50  0000 C CNN
F 2 "" H 9950 3850 50  0001 C CNN
F 3 "" H 9950 3850 50  0001 C CNN
	1    9950 3850
	1    0    0    -1  
$EndComp
Text Notes 9250 1800 1    100  ~ 0
FSK OUT
$EndSCHEMATC
