Reference, Quantity, Value, Footprint, Datasheet, CatNo
H1 H2 H3 H4 ,4,"MountingHole_Pad","MountingHole:MountingHole_3.5mm_Pad","~"
J1 ,1,"Conn_02x34_Top_Bottom","footprints:5796055-2","~","5796055-1-ND"
J2 ,1,"Conn_02x20_Odd_Even","Connector_PinHeader_2.54mm:PinHeader_2x20_P2.54mm_Vertical","~","S9175-ND"
J3 J4 J5 J6 J7 J8 J9 J10 J11 J12 J13 ,11,"SMA","Connector_Coaxial:SMA_Amphenol_132291-12_Vertical"," ~","ACX1230-ND"
JP1 ,1,"Jumper","Connector_PinHeader_2.54mm:PinHeader_2x01_P2.54mm_Vertical","~","732-5315-ND"