%TF.GenerationSoftware,KiCad,Pcbnew,5.1.12-84ad8e8a86~92~ubuntu20.04.1*%
%TF.CreationDate,2022-09-29T08:05:52-04:00*%
%TF.ProjectId,breakout,62726561-6b6f-4757-942e-6b696361645f,rev?*%
%TF.SameCoordinates,Original*%
%TF.FileFunction,Copper,L1,Top*%
%TF.FilePolarity,Positive*%
%FSLAX46Y46*%
G04 Gerber Fmt 4.6, Leading zero omitted, Abs format (unit mm)*
G04 Created by KiCad (PCBNEW 5.1.12-84ad8e8a86~92~ubuntu20.04.1) date 2022-09-29 08:05:52*
%MOMM*%
%LPD*%
G01*
G04 APERTURE LIST*
%TA.AperFunction,ComponentPad*%
%ADD10C,2.082800*%
%TD*%
%TA.AperFunction,ComponentPad*%
%ADD11C,1.752600*%
%TD*%
%TA.AperFunction,ComponentPad*%
%ADD12C,1.016000*%
%TD*%
%TA.AperFunction,ComponentPad*%
%ADD13R,1.700000X1.700000*%
%TD*%
%TA.AperFunction,ComponentPad*%
%ADD14O,1.700000X1.700000*%
%TD*%
%TA.AperFunction,ComponentPad*%
%ADD15C,2.250000*%
%TD*%
%TA.AperFunction,ComponentPad*%
%ADD16C,2.050000*%
%TD*%
%TA.AperFunction,ComponentPad*%
%ADD17C,7.000000*%
%TD*%
%TA.AperFunction,ViaPad*%
%ADD18C,0.508000*%
%TD*%
%TA.AperFunction,Conductor*%
%ADD19C,0.381000*%
%TD*%
%TA.AperFunction,Conductor*%
%ADD20C,0.127000*%
%TD*%
G04 APERTURE END LIST*
D10*
%TO.P,J1,72*%
%TO.N,N/C*%
X47190004Y-105550005D03*
%TO.P,J1,71*%
X47190004Y-147449997D03*
D11*
%TO.P,J1,70*%
X49819996Y-107650001D03*
%TO.P,J1,69*%
X49819996Y-145350001D03*
D12*
%TO.P,J1,68*%
%TO.N,GND*%
X48570001Y-113300002D03*
%TO.P,J1,67*%
%TO.N,/EXTCLKIN*%
X49720001Y-114100003D03*
%TO.P,J1,66*%
%TO.N,GND*%
X48570001Y-114900004D03*
%TO.P,J1,65*%
%TO.N,/DIO0*%
X49720001Y-115700002D03*
%TO.P,J1,64*%
%TO.N,GND*%
X48570001Y-116500003D03*
%TO.P,J1,63*%
%TO.N,/DIO2*%
X49720001Y-117300002D03*
%TO.P,J1,62*%
%TO.N,GND*%
X48570001Y-118100003D03*
%TO.P,J1,61*%
%TO.N,/DIO4*%
X49720001Y-118900004D03*
%TO.P,J1,60*%
%TO.N,GND*%
X48570001Y-119700002D03*
%TO.P,J1,59*%
%TO.N,/DIO6*%
X49720001Y-120500003D03*
%TO.P,J1,58*%
%TO.N,GND*%
X48570001Y-121300001D03*
%TO.P,J1,57*%
%TO.N,/DIO8*%
X49720001Y-122100002D03*
%TO.P,J1,56*%
%TO.N,GND*%
X48570001Y-122900001D03*
%TO.P,J1,55*%
%TO.N,/DIO10*%
X49720001Y-123700002D03*
%TO.P,J1,54*%
%TO.N,GND*%
X48570001Y-124500003D03*
%TO.P,J1,53*%
%TO.N,/DIO12*%
X49720001Y-125300001D03*
%TO.P,J1,52*%
%TO.N,GND*%
X48570001Y-126100002D03*
%TO.P,J1,51*%
%TO.N,/DIO14*%
X49720001Y-126900000D03*
%TO.P,J1,50*%
%TO.N,GND*%
X48570001Y-127700001D03*
%TO.P,J1,49*%
%TO.N,/DIO16*%
X49720001Y-128500002D03*
%TO.P,J1,48*%
%TO.N,GND*%
X48570001Y-129300001D03*
%TO.P,J1,47*%
%TO.N,/DIO18*%
X49720001Y-130100001D03*
%TO.P,J1,46*%
%TO.N,GND*%
X48570001Y-130900000D03*
%TO.P,J1,45*%
%TO.N,/DIO20*%
X49720001Y-131700001D03*
%TO.P,J1,44*%
%TO.N,GND*%
X48570001Y-132500002D03*
%TO.P,J1,43*%
%TO.N,/DIO22*%
X49720001Y-133300000D03*
%TO.P,J1,42*%
%TO.N,GND*%
X48570001Y-134100001D03*
%TO.P,J1,41*%
%TO.N,/DIO24*%
X49720001Y-134900000D03*
%TO.P,J1,40*%
%TO.N,GND*%
X48570001Y-135700000D03*
%TO.P,J1,39*%
%TO.N,/DIO26*%
X49720001Y-136500001D03*
%TO.P,J1,38*%
%TO.N,GND*%
X48570001Y-137300000D03*
%TO.P,J1,37*%
%TO.N,/DIO28*%
X49720001Y-138100001D03*
%TO.P,J1,36*%
%TO.N,GND*%
X48570001Y-138899999D03*
%TO.P,J1,35*%
%TO.N,/DIO30*%
X49720001Y-139700000D03*
%TO.P,J1,34*%
%TO.N,GND*%
X50919999Y-113300002D03*
%TO.P,J1,33*%
X52069999Y-114100003D03*
%TO.P,J1,32*%
X50919999Y-114900004D03*
%TO.P,J1,31*%
%TO.N,/DIO1*%
X52069999Y-115700002D03*
%TO.P,J1,30*%
%TO.N,GND*%
X50919999Y-116500003D03*
%TO.P,J1,29*%
%TO.N,/DIO3*%
X52069999Y-117300002D03*
%TO.P,J1,28*%
%TO.N,GND*%
X50919999Y-118100003D03*
%TO.P,J1,27*%
%TO.N,/DIO5*%
X52069999Y-118900004D03*
%TO.P,J1,26*%
%TO.N,GND*%
X50919999Y-119700002D03*
%TO.P,J1,25*%
%TO.N,/DIO7*%
X52069999Y-120500003D03*
%TO.P,J1,24*%
%TO.N,GND*%
X50919999Y-121300001D03*
%TO.P,J1,23*%
%TO.N,/DIO9*%
X52069999Y-122100002D03*
%TO.P,J1,22*%
%TO.N,GND*%
X50919999Y-122900001D03*
%TO.P,J1,21*%
%TO.N,/DIO11*%
X52069999Y-123700002D03*
%TO.P,J1,20*%
%TO.N,GND*%
X50919999Y-124500003D03*
%TO.P,J1,19*%
%TO.N,/DIO13*%
X52069999Y-125300001D03*
%TO.P,J1,18*%
%TO.N,GND*%
X50919999Y-126100002D03*
%TO.P,J1,17*%
%TO.N,/DIO15*%
X52069999Y-126900000D03*
%TO.P,J1,16*%
%TO.N,GND*%
X50919999Y-127700001D03*
%TO.P,J1,15*%
%TO.N,/DIO17*%
X52069999Y-128500002D03*
%TO.P,J1,14*%
%TO.N,GND*%
X50919999Y-129300001D03*
%TO.P,J1,13*%
%TO.N,/DIO19*%
X52069999Y-130100001D03*
%TO.P,J1,12*%
%TO.N,GND*%
X50919999Y-130900000D03*
%TO.P,J1,11*%
%TO.N,/DIO21*%
X52069999Y-131700001D03*
%TO.P,J1,10*%
%TO.N,GND*%
X50919999Y-132500002D03*
%TO.P,J1,9*%
%TO.N,/DIO23*%
X52069999Y-133300000D03*
%TO.P,J1,8*%
%TO.N,GND*%
X50919999Y-134100001D03*
%TO.P,J1,7*%
%TO.N,/DIO25*%
X52069999Y-134900000D03*
%TO.P,J1,6*%
%TO.N,GND*%
X50919999Y-135700000D03*
%TO.P,J1,5*%
%TO.N,/DIO27*%
X52069999Y-136500001D03*
%TO.P,J1,4*%
%TO.N,GND*%
X50919999Y-137300000D03*
%TO.P,J1,3*%
%TO.N,/DIO29*%
X52069999Y-138100001D03*
%TO.P,J1,2*%
%TO.N,GND*%
X50919999Y-138899999D03*
%TO.P,J1,1*%
%TO.N,/DIO31*%
X52069999Y-139700000D03*
%TD*%
D13*
%TO.P,J2,1*%
%TO.N,GND*%
X130810000Y-102870000D03*
D14*
%TO.P,J2,2*%
%TO.N,/DIO7*%
X133350000Y-102870000D03*
%TO.P,J2,3*%
%TO.N,GND*%
X130810000Y-105410000D03*
%TO.P,J2,4*%
%TO.N,/DIO8*%
X133350000Y-105410000D03*
%TO.P,J2,5*%
%TO.N,GND*%
X130810000Y-107950000D03*
%TO.P,J2,6*%
%TO.N,/DIO9*%
X133350000Y-107950000D03*
%TO.P,J2,7*%
%TO.N,GND*%
X130810000Y-110490000D03*
%TO.P,J2,8*%
%TO.N,/DIO10*%
X133350000Y-110490000D03*
%TO.P,J2,9*%
%TO.N,GND*%
X130810000Y-113030000D03*
%TO.P,J2,10*%
%TO.N,/DIO11*%
X133350000Y-113030000D03*
%TO.P,J2,11*%
%TO.N,GND*%
X130810000Y-115570000D03*
%TO.P,J2,12*%
%TO.N,/DIO12*%
X133350000Y-115570000D03*
%TO.P,J2,13*%
%TO.N,GND*%
X130810000Y-118110000D03*
%TO.P,J2,14*%
%TO.N,/DIO13*%
X133350000Y-118110000D03*
%TO.P,J2,15*%
%TO.N,GND*%
X130810000Y-120650000D03*
%TO.P,J2,16*%
%TO.N,/DIO14*%
X133350000Y-120650000D03*
%TO.P,J2,17*%
%TO.N,GND*%
X130810000Y-123190000D03*
%TO.P,J2,18*%
%TO.N,/DIO1*%
X133350000Y-123190000D03*
%TO.P,J2,19*%
%TO.N,GND*%
X130810000Y-125730000D03*
%TO.P,J2,20*%
%TO.N,/DIO2*%
X133350000Y-125730000D03*
%TO.P,J2,21*%
%TO.N,GND*%
X130810000Y-128270000D03*
%TO.P,J2,22*%
%TO.N,/DIO3*%
X133350000Y-128270000D03*
%TO.P,J2,23*%
%TO.N,GND*%
X130810000Y-130810000D03*
%TO.P,J2,24*%
%TO.N,/DIO4*%
X133350000Y-130810000D03*
%TO.P,J2,25*%
%TO.N,GND*%
X130810000Y-133350000D03*
%TO.P,J2,26*%
%TO.N,/DIO5*%
X133350000Y-133350000D03*
%TO.P,J2,27*%
%TO.N,GND*%
X130810000Y-135890000D03*
%TO.P,J2,28*%
%TO.N,/DIO6*%
X133350000Y-135890000D03*
%TO.P,J2,29*%
%TO.N,GND*%
X130810000Y-138430000D03*
%TO.P,J2,30*%
%TO.N,/DIO20*%
X133350000Y-138430000D03*
%TO.P,J2,31*%
%TO.N,GND*%
X130810000Y-140970000D03*
%TO.P,J2,32*%
%TO.N,/DIO25*%
X133350000Y-140970000D03*
%TO.P,J2,33*%
%TO.N,GND*%
X130810000Y-143510000D03*
%TO.P,J2,34*%
%TO.N,/DIO24*%
X133350000Y-143510000D03*
%TO.P,J2,35*%
%TO.N,GND*%
X130810000Y-146050000D03*
%TO.P,J2,36*%
%TO.N,/DIO26*%
X133350000Y-146050000D03*
%TO.P,J2,37*%
%TO.N,GND*%
X130810000Y-148590000D03*
%TO.P,J2,38*%
%TO.N,/DIO18*%
X133350000Y-148590000D03*
%TO.P,J2,39*%
%TO.N,GND*%
X130810000Y-151130000D03*
%TO.P,J2,40*%
%TO.N,/DIO19*%
X133350000Y-151130000D03*
%TD*%
D15*
%TO.P,J3,2*%
%TO.N,GND*%
X99060000Y-165100000D03*
X99060000Y-160020000D03*
X104140000Y-160020000D03*
X104140000Y-165100000D03*
D16*
%TO.P,J3,1*%
%TO.N,/DIO15*%
X101600000Y-162560000D03*
%TD*%
D15*
%TO.P,J4,2*%
%TO.N,GND*%
X86360000Y-165100000D03*
X86360000Y-160020000D03*
X91440000Y-160020000D03*
X91440000Y-165100000D03*
D16*
%TO.P,J4,1*%
%TO.N,/DIO27*%
X88900000Y-162560000D03*
%TD*%
%TO.P,J5,1*%
%TO.N,/DIO16*%
X76200000Y-162560000D03*
D15*
%TO.P,J5,2*%
%TO.N,GND*%
X78740000Y-165100000D03*
X78740000Y-160020000D03*
X73660000Y-160020000D03*
X73660000Y-165100000D03*
%TD*%
D16*
%TO.P,J6,1*%
%TO.N,/DIO28*%
X114300000Y-162560000D03*
D15*
%TO.P,J6,2*%
%TO.N,GND*%
X116840000Y-165100000D03*
X116840000Y-160020000D03*
X111760000Y-160020000D03*
X111760000Y-165100000D03*
%TD*%
%TO.P,J7,2*%
%TO.N,GND*%
X60960000Y-165100000D03*
X60960000Y-160020000D03*
X66040000Y-160020000D03*
X66040000Y-165100000D03*
D16*
%TO.P,J7,1*%
%TO.N,/DIO17*%
X63500000Y-162560000D03*
%TD*%
D15*
%TO.P,J8,2*%
%TO.N,GND*%
X99060000Y-95250000D03*
X99060000Y-90170000D03*
X104140000Y-90170000D03*
X104140000Y-95250000D03*
D16*
%TO.P,J8,1*%
%TO.N,/DIO29*%
X101600000Y-92710000D03*
%TD*%
%TO.P,J9,1*%
%TO.N,/DIO21*%
X76200000Y-92710000D03*
D15*
%TO.P,J9,2*%
%TO.N,GND*%
X78740000Y-95250000D03*
X78740000Y-90170000D03*
X73660000Y-90170000D03*
X73660000Y-95250000D03*
%TD*%
D16*
%TO.P,J10,1*%
%TO.N,/DIO30*%
X88900000Y-92710000D03*
D15*
%TO.P,J10,2*%
%TO.N,GND*%
X91440000Y-95250000D03*
X91440000Y-90170000D03*
X86360000Y-90170000D03*
X86360000Y-95250000D03*
%TD*%
D16*
%TO.P,J11,1*%
%TO.N,/DIO23*%
X114300000Y-92710000D03*
D15*
%TO.P,J11,2*%
%TO.N,GND*%
X116840000Y-95250000D03*
X116840000Y-90170000D03*
X111760000Y-90170000D03*
X111760000Y-95250000D03*
%TD*%
%TO.P,J12,2*%
%TO.N,GND*%
X60960000Y-95250000D03*
X60960000Y-90170000D03*
X66040000Y-90170000D03*
X66040000Y-95250000D03*
D16*
%TO.P,J12,1*%
%TO.N,/DIO31*%
X63500000Y-92710000D03*
%TD*%
D13*
%TO.P,JP1,1*%
%TO.N,/DIO21*%
X62230000Y-133350000D03*
D14*
%TO.P,JP1,2*%
%TO.N,/DIO22*%
X62230000Y-135890000D03*
%TD*%
D17*
%TO.P,H1,1*%
%TO.N,GND*%
X134620000Y-168910000D03*
%TD*%
%TO.P,H2,1*%
%TO.N,GND*%
X44450000Y-80010000D03*
%TD*%
%TO.P,H3,1*%
%TO.N,GND*%
X134620000Y-80010000D03*
%TD*%
%TO.P,H4,1*%
%TO.N,GND*%
X44450000Y-168910000D03*
%TD*%
D16*
%TO.P,J13,1*%
%TO.N,/DIO0*%
X50800000Y-92710000D03*
D15*
%TO.P,J13,2*%
%TO.N,GND*%
X53340000Y-95250000D03*
X53340000Y-90170000D03*
X48260000Y-90170000D03*
X48260000Y-95250000D03*
%TD*%
D18*
%TO.N,/DIO31*%
X56261000Y-139319000D03*
%TO.N,/DIO29*%
X98996499Y-139382501D03*
%TO.N,/DIO27*%
X88900000Y-138811000D03*
%TO.N,/DIO23*%
X114173000Y-136398000D03*
%TO.N,/DIO19*%
X111834999Y-130100001D03*
X111633000Y-149860000D03*
%TO.N,/DIO17*%
X66143002Y-128500002D03*
%TO.N,/DIO15*%
X101573000Y-126900000D03*
%TO.N,/DIO13*%
X112062999Y-125300001D03*
X112062999Y-114475999D03*
%TO.N,/DIO11*%
X110995998Y-123700002D03*
X111379000Y-111760000D03*
%TO.N,/DIO9*%
X110182998Y-122100002D03*
X110182998Y-106860002D03*
%TO.N,/DIO7*%
X109070003Y-120500003D03*
X109070003Y-101368997D03*
%TO.N,/DIO30*%
X89916000Y-140843000D03*
%TO.N,/DIO28*%
X46990000Y-138049000D03*
X46990000Y-142367000D03*
X114300000Y-142367000D03*
%TO.N,/DIO26*%
X45974000Y-136525000D03*
X45974000Y-143637000D03*
%TO.N,/DIO24*%
X44958000Y-134900004D03*
X44958000Y-150114000D03*
X122174000Y-148717000D03*
X122174000Y-142240000D03*
%TO.N,/DIO22*%
X44069000Y-133223000D03*
X44323000Y-151511000D03*
X62230000Y-151257000D03*
%TO.N,/DIO20*%
X43180000Y-131700003D03*
X43688000Y-152654000D03*
X124079000Y-152654000D03*
X124079000Y-137287000D03*
%TO.N,/DIO18*%
X42418000Y-130100001D03*
X42799000Y-153924000D03*
X127254000Y-153924000D03*
%TO.N,/DIO16*%
X41529000Y-128500000D03*
X42037000Y-155194000D03*
X76200000Y-155194000D03*
%TO.N,/DIO14*%
X40640000Y-126873000D03*
X40894000Y-156972000D03*
X126746000Y-156972000D03*
X125730000Y-119507000D03*
%TO.N,/DIO12*%
X42926000Y-110490000D03*
X43053000Y-125349000D03*
%TO.N,/DIO10*%
X42037000Y-123700000D03*
X42164000Y-108966000D03*
%TO.N,/DIO8*%
X40640000Y-104140002D03*
X40640001Y-122047000D03*
%TO.N,/DIO6*%
X46990000Y-120523000D03*
X67715501Y-134722499D03*
X67715501Y-103148501D03*
X44069000Y-103124000D03*
%TO.N,/DIO4*%
X46990000Y-118872000D03*
X56388000Y-118110000D03*
X56134000Y-111379000D03*
X45085000Y-111379000D03*
%TO.N,/DIO2*%
X46990000Y-117348000D03*
X46101000Y-109601000D03*
X127127000Y-109601000D03*
%TO.N,/DIO0*%
X46993002Y-115700002D03*
%TD*%
D19*
%TO.N,/DIO31*%
X52069999Y-139700000D02*
X52958999Y-138811000D01*
X52958999Y-138811000D02*
X55753000Y-138811000D01*
X55753000Y-138811000D02*
X56261000Y-139319000D01*
%TO.N,/DIO29*%
X52069999Y-138100001D02*
X56693001Y-138100001D01*
X57975501Y-139382501D02*
X98996499Y-139382501D01*
X56693001Y-138100001D02*
X57975501Y-139382501D01*
%TO.N,/DIO27*%
X52069999Y-136500001D02*
X58268001Y-136500001D01*
X58268001Y-136500001D02*
X60579000Y-138811000D01*
X60579000Y-138811000D02*
X88900000Y-138811000D01*
%TO.N,/DIO25*%
X132182499Y-139802499D02*
X133350000Y-140970000D01*
X120244499Y-139802499D02*
X132182499Y-139802499D01*
X118110000Y-137668000D02*
X120244499Y-139802499D01*
X61214000Y-137668000D02*
X118110000Y-137668000D01*
X59182000Y-135636000D02*
X61214000Y-137668000D01*
X53034002Y-135636000D02*
X59182000Y-135636000D01*
X52806001Y-135407999D02*
X53034002Y-135636000D01*
X52577998Y-135407999D02*
X52806001Y-135407999D01*
X52069999Y-134900000D02*
X52577998Y-135407999D01*
%TO.N,/DIO23*%
X53492498Y-134722499D02*
X65634499Y-134722499D01*
X52069999Y-133300000D02*
X53492498Y-134722499D01*
X65634499Y-134722499D02*
X67310000Y-136398000D01*
X67310000Y-136398000D02*
X114173000Y-136398000D01*
%TO.N,/DIO21*%
X60580001Y-131700001D02*
X62230000Y-133350000D01*
X52069999Y-131700001D02*
X60580001Y-131700001D01*
%TO.N,/DIO19*%
X52069999Y-130100001D02*
X111834999Y-130100001D01*
X132080000Y-149860000D02*
X133350000Y-151130000D01*
X111633000Y-149860000D02*
X132080000Y-149860000D01*
%TO.N,/DIO17*%
X52069999Y-128500002D02*
X66143002Y-128500002D01*
%TO.N,/DIO15*%
X52069999Y-126900000D02*
X101573000Y-126900000D01*
%TO.N,/DIO13*%
X52069999Y-125300001D02*
X112062999Y-125300001D01*
X112062999Y-114475999D02*
X121968999Y-114475999D01*
X132182499Y-116942499D02*
X133350000Y-118110000D01*
X124435499Y-116942499D02*
X132182499Y-116942499D01*
X121968999Y-114475999D02*
X124435499Y-116942499D01*
%TO.N,/DIO11*%
X52069999Y-123700002D02*
X110995998Y-123700002D01*
X132080000Y-111760000D02*
X133350000Y-113030000D01*
X111379000Y-111760000D02*
X132080000Y-111760000D01*
%TO.N,/DIO9*%
X52069999Y-122100002D02*
X110182998Y-122100002D01*
X132006003Y-106606003D02*
X133350000Y-107950000D01*
X110436997Y-106606003D02*
X132006003Y-106606003D01*
X110182998Y-106860002D02*
X110436997Y-106606003D01*
%TO.N,/DIO7*%
X52069999Y-120500003D02*
X109070003Y-120500003D01*
X133350000Y-102870000D02*
X131064000Y-100584000D01*
X109855000Y-100584000D02*
X109070003Y-101368997D01*
X131064000Y-100584000D02*
X109855000Y-100584000D01*
%TO.N,/DIO5*%
X52069999Y-118900004D02*
X112169004Y-118900004D01*
X132182499Y-132182499D02*
X133350000Y-133350000D01*
X125451499Y-132182499D02*
X132182499Y-132182499D01*
X112169004Y-118900004D02*
X125451499Y-132182499D01*
%TO.N,/DIO3*%
X52069999Y-117300002D02*
X115903002Y-117300002D01*
X132182499Y-127102499D02*
X133350000Y-128270000D01*
X125705499Y-127102499D02*
X132182499Y-127102499D01*
X115903002Y-117300002D02*
X125705499Y-127102499D01*
%TO.N,/DIO1*%
X52069999Y-115700002D02*
X118621002Y-115700002D01*
X132182499Y-122022499D02*
X133350000Y-123190000D01*
X124943499Y-122022499D02*
X132182499Y-122022499D01*
X118621002Y-115700002D02*
X124943499Y-122022499D01*
%TO.N,/DIO30*%
X49720001Y-139700000D02*
X49720001Y-140779001D01*
X49720001Y-140779001D02*
X49784000Y-140843000D01*
X49784000Y-140843000D02*
X89916000Y-140843000D01*
D20*
%TO.N,/DIO28*%
X49720001Y-138100001D02*
X47041001Y-138100001D01*
X47041001Y-138100001D02*
X46990000Y-138049000D01*
D19*
X46990000Y-142367000D02*
X114300000Y-142367000D01*
D20*
%TO.N,/DIO26*%
X49720001Y-136500001D02*
X45998999Y-136500001D01*
X45998999Y-136500001D02*
X45974000Y-136525000D01*
D19*
X45974000Y-143637000D02*
X121793000Y-143637000D01*
X123038499Y-144882499D02*
X132182499Y-144882499D01*
X132182499Y-144882499D02*
X133350000Y-146050000D01*
X121793000Y-143637000D02*
X123038499Y-144882499D01*
D20*
%TO.N,/DIO24*%
X49720001Y-134900000D02*
X44958004Y-134900000D01*
X44958004Y-134900000D02*
X44958000Y-134900004D01*
D19*
X44958000Y-150114000D02*
X49784000Y-150114000D01*
X49784000Y-150114000D02*
X51181000Y-148717000D01*
X51181000Y-148717000D02*
X122174000Y-148717000D01*
X132080000Y-142240000D02*
X133350000Y-143510000D01*
X122174000Y-142240000D02*
X132080000Y-142240000D01*
D20*
%TO.N,/DIO22*%
X44146000Y-133300000D02*
X44069000Y-133223000D01*
X49720001Y-133300000D02*
X44146000Y-133300000D01*
D19*
X44323000Y-151511000D02*
X44577000Y-151257000D01*
X44577000Y-151257000D02*
X62230000Y-151257000D01*
D20*
%TO.N,/DIO20*%
X49720001Y-131700001D02*
X43180002Y-131700001D01*
X43180002Y-131700001D02*
X43180000Y-131700003D01*
D19*
X43688000Y-152654000D02*
X47244000Y-152654000D01*
X47244000Y-152654000D02*
X124079000Y-152654000D01*
X132182499Y-137262499D02*
X133350000Y-138430000D01*
X124103501Y-137262499D02*
X132182499Y-137262499D01*
X124079000Y-137287000D02*
X124103501Y-137262499D01*
D20*
%TO.N,/DIO18*%
X49720001Y-130100001D02*
X42418000Y-130100001D01*
D19*
X42799000Y-153924000D02*
X67183000Y-153924000D01*
X67183000Y-153924000D02*
X119634000Y-153924000D01*
X119634000Y-153924000D02*
X127254000Y-153924000D01*
D20*
%TO.N,/DIO16*%
X49720001Y-128500002D02*
X41529002Y-128500002D01*
X41529002Y-128500002D02*
X41529000Y-128500000D01*
D19*
X42037000Y-155194000D02*
X76200000Y-155194000D01*
D20*
%TO.N,/DIO14*%
X40667000Y-126900000D02*
X40640000Y-126873000D01*
X49720001Y-126900000D02*
X40667000Y-126900000D01*
D19*
X40894000Y-156972000D02*
X126746000Y-156972000D01*
X132182499Y-119482499D02*
X133350000Y-120650000D01*
X125754501Y-119482499D02*
X132182499Y-119482499D01*
X125730000Y-119507000D02*
X125754501Y-119482499D01*
%TO.N,/DIO12*%
X132182499Y-114402499D02*
X125500501Y-114402499D01*
X133350000Y-115570000D02*
X132182499Y-114402499D01*
X125500501Y-114402499D02*
X124255002Y-113157000D01*
X124255002Y-113157000D02*
X59309000Y-113157000D01*
X59309000Y-113157000D02*
X56642000Y-110490000D01*
X56642000Y-110490000D02*
X42926000Y-110490000D01*
D20*
X43101999Y-125300001D02*
X43053000Y-125349000D01*
X49720001Y-125300001D02*
X43101999Y-125300001D01*
%TO.N,/DIO10*%
X49720001Y-123700002D02*
X42037002Y-123700002D01*
X42037002Y-123700002D02*
X42037000Y-123700000D01*
D19*
X133350000Y-110490000D02*
X132182499Y-109322499D01*
X132182499Y-109322499D02*
X129642499Y-109322499D01*
X129642499Y-109322499D02*
X129286000Y-108966000D01*
X129286000Y-108966000D02*
X42164000Y-108966000D01*
%TO.N,/DIO8*%
X133350000Y-105410000D02*
X132080002Y-104140002D01*
X132080002Y-104140002D02*
X40640000Y-104140002D01*
D20*
X49720001Y-122100002D02*
X40693003Y-122100002D01*
X40693003Y-122100002D02*
X40640001Y-122047000D01*
%TO.N,/DIO6*%
X49720001Y-120500003D02*
X47012997Y-120500003D01*
X47012997Y-120500003D02*
X46990000Y-120523000D01*
D19*
X132182499Y-134722499D02*
X67715501Y-134722499D01*
X133350000Y-135890000D02*
X132182499Y-134722499D01*
X67715501Y-103148501D02*
X57809501Y-103148501D01*
X57809501Y-103148501D02*
X57785000Y-103124000D01*
X57785000Y-103124000D02*
X44069000Y-103124000D01*
D20*
%TO.N,/DIO4*%
X49720001Y-118900004D02*
X47018004Y-118900004D01*
X47018004Y-118900004D02*
X46990000Y-118872000D01*
D19*
X132182499Y-129642499D02*
X125578499Y-129642499D01*
X133350000Y-130810000D02*
X132182499Y-129642499D01*
X125578499Y-129642499D02*
X114046000Y-118110000D01*
X114046000Y-118110000D02*
X92837000Y-118110000D01*
X92837000Y-118110000D02*
X56388000Y-118110000D01*
X56134000Y-111379000D02*
X45085000Y-111379000D01*
D20*
%TO.N,/DIO2*%
X49720001Y-117300002D02*
X47037998Y-117300002D01*
X47037998Y-117300002D02*
X46990000Y-117348000D01*
D19*
X46101000Y-109601000D02*
X127127000Y-109601000D01*
D20*
%TO.N,/DIO0*%
X49720001Y-115700002D02*
X46993002Y-115700002D01*
%TD*%
M02*
